01611;00001;31/03/2017;19;BAILLEUL - PRINTEMPS : 1 intervention(s), ERBORIAN : 3 intervention(s), MELVITA : 15 intervention(s);133;1298.08;19;294.5;019 repas a 15.50 Euro;;;;;;;;28.5;;;;;;;;;;;;;;;;;;;;;;
01581;00001;31/03/2017;8;ERBORIAN : 1 intervention(s), MELVITA : 7 intervention(s);53.5;522.16;8;120;08 repas a 15.00 Euro;;;;;;;;12;;;;;;;;;;;;;;;;;;;;;;
01898;00001;31/03/2017;10;FORTE ANIMATION - PRINTEMPS : 10 intervention(s);70;683.2;10;135;010 repas a 13.50 Euro;;;;;;;;;;;;;;;;;;;;;;;;;;;;;;
01950;00001;31/03/2017;12;MERITENE : 12 intervention(s);84;819.84;12;168;012 repas a 14.00 Euro;;;;;;;;;;;;;;;;;;;;;;;;;;;;;;
01954;00001;31/03/2017;11;MERITENE : 11 intervention(s);77;751.52;11;143;011 repas a 13.00 Euro;;;;;;;;;;;;;;;;;;;;;;;;;;;;;;
01094;00001;31/03/2017;18;FORTE ANIMATION - PRINTEMPS : 18 intervention(s);126;1260;18;288;018 repas a 16.00 Euro;;;;;;;;36;;;;;;;;;;;;;;;;;;;;;;
01765;00001;31/03/2017;21;BAILLEUL - PRINTEMPS : 1 intervention(s), ERBORIAN : 3 intervention(s), ERBORIAN GRANDS MAGASINS : 2 intervention(s), MELVITA : 8 intervention(s), MERITENE : 7 intervention(s);147;1480.08;21;324.5;019 repas a 15.50 Euro, 2 repas a 15.00 Euro;;;;;;;;11.5;;;;;;;;;;;;;;;;;;;;;;
01096;00001;31/03/2017;13;ERBORIAN : 1 intervention(s), MELVITA : 12 intervention(s);91;888.16;13;182;013 repas a 14.00 Euro;;;;;;;;;;;;;;;;;;;;;;;;;;;;;;
01940;00001;31/03/2017;3;MERITENE : 3 intervention(s);3;29.28;0;0;0;;;;;;;;;;;;;;;;;;;;;;;;;;;;;;
01895;00001;31/03/2017;4;ORAL CARE : 4 intervention(s);28;313.6;4;60;04 repas a 15.00 Euro;;;;;;;;;;;;;;;;;;;;;;;;;;;;;;
01915;00001;31/03/2017;33;FORTE FORMATION - PRINTEMPS : 33 intervention(s);75.5;792.75;11;154;011 repas a 14.00 Euro;;;;;;;;24;;;;;;;;;;;;;;;;;;;;;;
01724;00001;31/03/2017;2;LEA NATURE JONZAC : 2 intervention(s);14;136.64;2;31;02 repas a 15.50 Euro;;;;;;;;3;;;;;;;;;;;;;;;;;;;;;;
01952;00001;31/03/2017;8;LEA NATURE JONZAC : 8 intervention(s);56;546.56;8;104;08 repas a 13.00 Euro;;;;;;;;;;;;;;;;;;;;;;;;;;;;;;
01882;00001;31/03/2017;6;LEA NATURE JONZAC : 2 intervention(s), MERITENE : 4 intervention(s);42;409.92;6;78;06 repas a 13.00 Euro;;;;;;;;;;;;;;;;;;;;;;;;;;;;;;
01229;00001;31/03/2017;22;FORTE ANIMATION - PRINTEMPS : 22 intervention(s);154;1540;22;352;022 repas a 16.00 Euro;;;;;;;;44;;;;;;;;;;;;;;;;;;;;;;
01587;00001;31/03/2017;11;BIOCYTE : 3 intervention(s), LEA NATURE JONZAC : 7 intervention(s), MELVITA : 1 intervention(s);77;751.52;11;148.5;011 repas a 13.50 Euro;;;;;;;;;;;;;;;;;;;;;;;;;;;;;;
01914;00001;31/03/2017;8;MERITENE : 8 intervention(s);56;546.56;8;104;08 repas a 13.00 Euro;;;;;;;;;;;;;;;;;;;;;;;;;;;;;;
01386;00001;31/03/2017;21;DERMAGOR : 1 intervention(s), FORTE ANIMATION - PRINTEMPS : 6 intervention(s), FORTE FORMATION - PRINTEMPS : 14 intervention(s);80;828.54;12;175;06 repas a 15.50 Euro, 5 repas a 14.00 Euro, 1 repas a 12.00 Euro;;;;;;;;18.5;;;;;;;;;;;;;;;;;;;;;;
01881;00001;31/03/2017;1;ERBORIAN GRANDS MAGASINS : 1 intervention(s);7;91;1;15.5;01 repas a 15.50 Euro;;;;;;;;;;;;;;;;;;;;;;;;;;;;;;
01923;00001;31/03/2017;5;LEA NATURE JONZAC : 1 intervention(s), MERITENE : 4 intervention(s);35;341.6;5;65;05 repas a 13.00 Euro;;;;;;;;;;;;;;;;;;;;;;;;;;;;;;
01302;00001;31/03/2017;4;BAILLEUL - PRINTEMPS : 3 intervention(s), John FRIEDA : 1 intervention(s);25;252.96;4;58.5;03 repas a 15.50 Euro, 1 repas a 12.00 Euro;;;;;;;;2.5;;;;;;;;;;;;;;;;;;;;;;
01761;00001;31/03/2017;2;ERBORIAN : 2 intervention(s);14;182;2;30;02 repas a 15.00 Euro;;;;;;;;;;;;;;;;;;;;;;;;;;;;;;
01924;00001;31/03/2017;21;FORTE ANIMATION - PRINTEMPS : 21 intervention(s);147;1434.72;21;273;021 repas a 13.00 Euro;;;;;;;;;;;;;;;;;;;;;;;;;;;;;;
01903;00001;31/03/2017;13;BAILLEUL - PRINTEMPS : 6 intervention(s), DERMAGOR : 3 intervention(s), INEBIOS : 2 intervention(s), LEA NATURE JONZAC : 2 intervention(s);91;888.16;13;169;013 repas a 13.00 Euro;;;;;;;;;;;;;;;;;;;;;;;;;;;;;;
01123;00001;31/03/2017;10;DERMAGOR : 2 intervention(s), MELVITA : 8 intervention(s);70;683.2;10;145;010 repas a 14.50 Euro;;;;;;;;;;;;;;;;;;;;;;;;;;;;;;
01936;00001;31/03/2017;1;MERITENE : 1 intervention(s);4;39.04;0;0;0;;;;;;;;;;;;;;;;;;;;;;;;;;;;;;
01931;00001;31/03/2017;12;MERITENE : 12 intervention(s);84;819.84;12;168;012 repas a 14.00 Euro;;;;;;;;;;;;;;;;;;;;;;;;;;;;;;
01076;00001;31/03/2017;10;FORTE ANIMATION - PRINTEMPS : 10 intervention(s);70;700;10;160;010 repas a 16.00 Euro;;;;;;;;20;;;;;;;;;;;;;;;;;;;;;;
01947;00001;31/03/2017;4;MERITENE : 4 intervention(s);28;273.28;4;52;04 repas a 13.00 Euro;;;;;;;;;;;;;;;;;;;;;;;;;;;;;;
01599;00001;31/03/2017;25;FORTE ANIMATION - PRINTEMPS : 5 intervention(s), FORTE FORMATION - PRINTEMPS : 18 intervention(s), MELVITA : 2 intervention(s);88;887.74;13;181;011 repas a 14.00 Euro, 2 repas a 13.50 Euro;;;;;;;;12.5;;;;;;;;;;;;;;;;;;;;;;
01887;00001;31/03/2017;5;ERBORIAN : 1 intervention(s), ERBORIAN GRANDS MAGASINS : 2 intervention(s), MELVITA : 2 intervention(s);35;386.96;5;76.5;02 repas a 15.00 Euro, 3 repas a 15.50 Euro;;;;;;;;3;;;;;;;;;;;;;;;;;;;;;;
01934;00001;31/03/2017;16;LEA NATURE JONZAC : 2 intervention(s), MERITENE : 14 intervention(s);112;1093.12;16;208;016 repas a 13.00 Euro;;;;;;;;;;;;;;;;;;;;;;;;;;;;;;
01081;00001;31/03/2017;7;FORTE ANIMATION - PRINTEMPS : 7 intervention(s);49;514.5;7;112;07 repas a 16.00 Euro;;;;;;;;14;;;;;;;;;;;;;;;;;;;;;;
01886;00001;31/03/2017;2;BAILLEUL - PRINTEMPS : 1 intervention(s), John FRIEDA : 1 intervention(s);14;136.64;2;28;02 repas a 14.00 Euro;;;;;;;;;;;;;;;;;;;;;;;;;;;;;;
01944;00001;31/03/2017;10;BIOCYTE : 3 intervention(s), MERITENE : 7 intervention(s);70;683.2;10;130;010 repas a 13.00 Euro;;;;;;;;;;;;;;;;;;;;;;;;;;;;;;
01933;00001;31/03/2017;9;MERITENE : 9 intervention(s);63;614.88;9;117;09 repas a 13.00 Euro;;;;;;;;;;;;;;;;;;;;;;;;;;;;;;
01326;00001;31/03/2017;1;BIOCYTE : 1 intervention(s);7;68.32;1;15.5;01 repas a 15.50 Euro;;;;;;;;1.5;;;;;;;;;;;;;;;;;;;;;;
01351;00001;31/03/2017;48;FORTE FORMATION - PRINTEMPS : 48 intervention(s);108;1134;18;252;018 repas a 14.00 Euro;;;;;;;;33.5;;;;;;;;;;;;;;;;;;;;;;
01093;00001;31/03/2017;6;DERMAGOR : 6 intervention(s);42;427.28;6;92.6;02 repas a 15.30 Euro, 4 repas a 15.50 Euro;;;;;;;;10;;;;;;;;;;;;;;;;;;;;;;
01938;00001;31/03/2017;12;MERITENE : 12 intervention(s);84;819.84;12;156;012 repas a 13.00 Euro;;;;;;;;;;;;;;;;;;;;;;;;;;;;;;
01171;00001;31/03/2017;18;BAILLEUL - PRINTEMPS : 2 intervention(s), DERMAGOR : 2 intervention(s), FORTE ANIMATION - PRINTEMPS : 10 intervention(s), FORTE FORMATION - PRINTEMPS : 4 intervention(s);108;1069.48;16;226;012 repas a 14.00 Euro, 4 repas a 14.50 Euro;;;;;;;;3;;;;;;;;;;;;;;;;;;;;;;
01793;00001;31/03/2017;2;MELVITA : 2 intervention(s);14;136.64;2;27;02 repas a 13.50 Euro;;;;;;;;;;;;;;;;;;;;;;;;;;;;;;
01653;00001;31/03/2017;18;BIOCYTE : 3 intervention(s), ERBORIAN : 2 intervention(s), John FRIEDA : 1 intervention(s), LEA NATURE JONZAC : 1 intervention(s), MELVITA : 11 intervention(s);123;1209.44;18;216;018 repas a 12.00 Euro;;;;;;;;1;;;;;;;;;;;;;;;;;;;;;;
01117;00001;31/03/2017;1;BAILLEUL - PRINTEMPS : 1 intervention(s);7;68.32;1;14.5;01 repas a 14.50 Euro;;;;;;;;;;;;;;;;;;;;;;;;;;;;;;
01906;00001;31/03/2017;18;FORTE FORMATION - PRINTEMPS : 18 intervention(s);42;441;7;98;07 repas a 14.00 Euro;;;;;;;;13;;;;;;;;;;;;;;;;;;;;;;
01913;00001;31/03/2017;12;BAILLEUL - PRINTEMPS : 4 intervention(s), DERMAGOR : 6 intervention(s), OCCITANE : 2 intervention(s);80.5;831.04;12;161;02 repas a 15.50 Euro, 10 repas a 13.00 Euro;;;;;;;;;;;;;;;;;;;;;;;;;;;;;;
01689;00001;31/03/2017;37;FORTE ANIMATION - PRINTEMPS : 7 intervention(s), FORTE FORMATION - PRINTEMPS : 30 intervention(s);114;1212.74;17;238;017 repas a 14.00 Euro;;;;;;;;20;;;;;;;;;;;;;;;;;;;;;;
01692;00001;31/03/2017;11;ERBORIAN GRANDS MAGASINS : 1 intervention(s), MERITENE : 10 intervention(s);77;774.2;11;155.5;010 repas a 14.00 Euro, 1 repas a 15.50 Euro;;;;;;;;;;;;;;;;;;;;;;;;;;;;;;
01853;00001;31/03/2017;11;BIOCYTE : 1 intervention(s), DERMAGOR : 2 intervention(s), MERITENE : 8 intervention(s);77;751.52;11;159.5;011 repas a 14.50 Euro;;;;;;;;;;;;;;;;;;;;;;;;;;;;;;
01862;00001;31/03/2017;2;LEA NATURE JONZAC : 2 intervention(s);14;136.64;2;27;02 repas a 13.50 Euro;;;;;;;;;;;;;;;;;;;;;;;;;;;;;;
01899;00001;31/03/2017;1;ERBORIAN GRANDS MAGASINS : 1 intervention(s);7;91;1;15.5;01 repas a 15.50 Euro;;;;;;;;;;;;;;;;;;;;;;;;;;;;;;
01776;00001;31/03/2017;10;ERBORIAN : 5 intervention(s), MELVITA : 5 intervention(s);70;683.2;10;135;010 repas a 13.50 Euro;;;;;;;;;;;;;;;;;;;;;;;;;;;;;;
01851;00001;31/03/2017;12;FORTE ANIMATION - PRINTEMPS : 6 intervention(s), FORTE FORMATION - PRINTEMPS : 6 intervention(s);55;546.42;8;109;06 repas a 13.50 Euro, 2 repas a 14.00 Euro;;;;;;;;4;;;;;;;;;;;;;;;;;;;;;;
01905;00001;31/03/2017;13;MELVITA : 13 intervention(s);91;888.16;13;195;013 repas a 15.00 Euro;;;;;;;;13;;;;;;;;;;;;;;;;;;;;;;
01872;00001;31/03/2017;2;DERMAGOR : 2 intervention(s);14;136.64;2;29;02 repas a 14.50 Euro;;;;;;;;;;;;;;;;;;;;;;;;;;;;;;
01333;00001;31/03/2017;9;DERMAGOR : 9 intervention(s);63;614.88;9;135;09 repas a 15.00 Euro;;;;;;;;;;;;;;;;;;;;;;;;;;;;;;
01110;00001;31/03/2017;9;MELVITA : 9 intervention(s);63;614.88;9;108;09 repas a 12.00 Euro;;;;;;;;;;;;;;;;;;;;;;;;;;;;;;
01885;00001;31/03/2017;19;BAILLEUL - PRINTEMPS : 6 intervention(s), John FRIEDA : 3 intervention(s), LEA NATURE JONZAC : 1 intervention(s), MELVITA : 9 intervention(s);126;1244.61;19;291;018 repas a 15.50 Euro, 1 repas a 12.00 Euro;;;;;;;;20;;;;;;;;;;;;;;7;;;;;;;;
01864;00001;31/03/2017;22;BAILLEUL - PRINTEMPS : 1 intervention(s), DERMAGOR : 2 intervention(s), DERMEDEN : 4 intervention(s), IXXI : 2 intervention(s), John FRIEDA : 1 intervention(s), LEA NATURE JONZAC : 3 intervention(s), MERITENE : 9 intervention(s);151;1482.72;22;306;021 repas a 14.00 Euro, 1 repas a 12.00 Euro;;;;;;;;1;;;;;;;;;;;;;;;;;;;;;;
01901;00001;31/03/2017;10;FORTE ANIMATION - PRINTEMPS : 10 intervention(s);70;683.2;10;130;010 repas a 13.00 Euro;;;;;;;;;;;;;;;;;;;;;;;;;;;;;;
01286;00001;31/03/2017;1;MELVITA : 1 intervention(s);7;68.32;1;13.5;01 repas a 13.50 Euro;;;;;;;;;;;;;;;;;;;;;;;;;;;;;;
01221;00001;31/03/2017;14;ERBORIAN : 3 intervention(s), MELVITA : 11 intervention(s);98;956.48;14;189;014 repas a 13.50 Euro;;;;;;;;;;;;;;;;;;;;;;;;;;;;;;
01663;00001;31/03/2017;9;BIOCYTE : 9 intervention(s);63;614.88;9;139.5;09 repas a 15.50 Euro;;;;;;;;13.5;;;;;;;;;;;;;;;;;;;;;;
01945;00001;31/03/2017;10;IPHARM DYNAMIC : 10 intervention(s);70;686.56;8;124;08 repas a 15.50 Euro;;;;;;;;8;;;;;;;;;;;;;;;;;;;;;;
01741;00001;31/03/2017;21;BIOCYTE : 4 intervention(s), ERBORIAN : 3 intervention(s), FORTE ANIMATION - PRINTEMPS : 2 intervention(s), LEA NATURE JONZAC : 1 intervention(s), MELVITA : 11 intervention(s);147;1434.72;21;283.5;021 repas a 13.50 Euro;;;;;;;;;;;;;;;;;;;;;;;;;;;;;;
01907;00001;31/03/2017;21;FORTE FORMATION - PRINTEMPS : 21 intervention(s);54;567;8;112;08 repas a 14.00 Euro;;;;;;;;16.5;;;;;;;;;;;;;;;;;;;;;;
01574;00001;31/03/2017;18;FORTE ANIMATION - PRINTEMPS : 18 intervention(s);126;1260;18;288;018 repas a 16.00 Euro;;;;;;;;36;;;;;;;;;;;;;;;;;;;;;;
01540;00001;31/03/2017;22;FORTE ANIMATION - PRINTEMPS : 9 intervention(s), FORTE FORMATION - PRINTEMPS : 13 intervention(s);93.5;935.13;13;182;013 repas a 14.00 Euro;;;;;;;;9.5;;;;;;;;;;;;;;;;;;;;;;
01844;00001;31/03/2017;5;ERBORIAN : 2 intervention(s), MELVITA : 3 intervention(s);35;341.6;5;77.5;05 repas a 15.50 Euro;;;;;;;;7.5;;;;;;;;;;;;;;;;;;;;;;
01919;00001;31/03/2017;22;ERBORIAN : 5 intervention(s), MELVITA : 17 intervention(s);154;1503.04;22;286;022 repas a 13.00 Euro;;;;;;;;;;;;;;;;;;;;;;;;;;;;;;
01216;00001;31/03/2017;7;ERBORIAN : 1 intervention(s), MELVITA : 6 intervention(s);49;478.24;7;105;07 repas a 15.00 Euro;;;;;;;;10.5;;;;;;;;;;;;;;;;;;;;;;
01948;00001;31/03/2017;7;LEA NATURE JONZAC : 7 intervention(s);49;478.24;7;98;07 repas a 14.00 Euro;;;;;;;;;;;;;;;;;;;;;;;;;;;;;;
01827;00001;31/03/2017;2;ERBORIAN GRANDS MAGASINS : 2 intervention(s);14;182;2;31;02 repas a 15.50 Euro;;;;;;;;;;;;;;;;;;;;;;;;;;;;;;
01930;00001;31/03/2017;6;MERITENE : 6 intervention(s);42;409.92;6;75;06 repas a 12.50 Euro;;;;;;;;;;;;;;;;;;;;;;;;;;;;;;
01382;00001;31/03/2017;50;FORTE FORMATION - PRINTEMPS : 50 intervention(s);115;1299.5;19;266;019 repas a 14.00 Euro;;;;;;;;35.5;;;;;;;;;;;;;;;;;;;;;;
01406;00001;31/03/2017;8;BAILLEUL - PRINTEMPS : 1 intervention(s), LYSEDIA : 2 intervention(s), MERITENE : 5 intervention(s);56;546.56;8;108;08 repas a 13.50 Euro;;;;;;;;;;;;;;;;;;;;;;;;;;;;;;
01837;00001;31/03/2017;2;LEA NATURE JONZAC : 2 intervention(s);14;136.64;2;31;02 repas a 15.50 Euro;;;;;;;;3;;;;;;;;;;;;;;;;;;;;;;
01755;00001;31/03/2017;5;DERMAGOR : 5 intervention(s);35;341.6;5;77.5;05 repas a 15.50 Euro;;;;;;;;7.5;;;;;;;;;;;;;;;;;;;;;;
01877;00001;31/03/2017;24;FORTE FORMATION - PRINTEMPS : 24 intervention(s);57;598.5;9;126;09 repas a 14.00 Euro;;;;;;;;17.5;;;;;;;;;;;;;;;;;;;;;;
01917;00001;31/03/2017;27;FORTE ANIMATION - PRINTEMPS : 5 intervention(s), FORTE FORMATION - PRINTEMPS : 16 intervention(s), MERITENE : 6 intervention(s);117;1171.52;17;227;06 repas a 14.00 Euro, 11 repas a 13.00 Euro;;;;;;;;12.5;;;;;;;;;;;;;;;;;;;;;;
01801;00001;31/03/2017;19;EA ANIMATION : 18 intervention(s), MELVITA : 1 intervention(s);133;1298.08;19;256.5;019 repas a 13.50 Euro;;;;;;;;;;;;;;;;;;;;;;;;;;;;;;
01686;00001;31/03/2017;27;FORTE FORMATION - PRINTEMPS : 27 intervention(s);59.5;624.75;10;140;010 repas a 14.00 Euro;;;;;;;;18.5;;;;;;;;;;;;;;;;;;;;;;
01387;00001;31/03/2017;22;FORTE ANIMATION - PRINTEMPS : 22 intervention(s);154;1540;22;352;022 repas a 16.00 Euro;;;;;;;;44;;;;;;;;;;;;;;;;;;;;;;
01819;00001;31/03/2017;20;BAILLEUL - PRINTEMPS : 1 intervention(s), ERBORIAN GRANDS MAGASINS : 2 intervention(s), MELVITA : 2 intervention(s), MERITENE : 15 intervention(s);140;1411.76;20;310;020 repas a 15.50 Euro;;;;;;;;27;;;;;;;;;;;;;;;;;;;;;;
01703;00001;31/03/2017;26;FORTE ANIMATION - PRINTEMPS : 11 intervention(s), FORTE FORMATION - PRINTEMPS : 15 intervention(s);112.5;1124.27;16;235;011 repas a 15.00 Euro, 5 repas a 14.00 Euro;;;;;;;;11.5;;;;;;;;;;;;;;;;;;;;;;
01647;00001;31/03/2017;15;ERBORIAN : 3 intervention(s), FORTE ANIMATION - PRINTEMPS : 5 intervention(s), MELVITA : 7 intervention(s);105;1024.8;15;210;015 repas a 14.00 Euro;;;;;;;;;;;;;;;;;;;;;;;;;;;;;;
01878;00001;31/03/2017;13;FORTE ANIMATION - PRINTEMPS : 13 intervention(s);91;888.16;13;188.5;013 repas a 14.50 Euro;;;;;;;;;;;;;;;;;;;;;;;;;;;;;;
01953;00001;31/03/2017;6;MERITENE : 6 intervention(s);42;409.92;6;78;06 repas a 13.00 Euro;;;;;;;;;;;;;;;;;;;;;;;;;;;;;;
01918;00001;31/03/2017;3;BIOCYTE : 1 intervention(s), LEA NATURE JONZAC : 1 intervention(s), MELVITA : 1 intervention(s);21;170.8;2;26;02 repas a 13.00 Euro;;;;;;;;;;;;;;;;;;;;;;;;;;;;;;
01856;00001;31/03/2017;15;FORTE FORMATION - PRINTEMPS : 15 intervention(s);36.5;383.25;7;98;07 repas a 14.00 Euro;;;;;;;;11;;;;;;;;;;;;;;;;;;;;;;
01928;00001;31/03/2017;10;MERITENE : 10 intervention(s);70;683.2;8;104;08 repas a 13.00 Euro;;;;;;;;;;;;;;;;;;;;;;;;;;;;;;
01452;00001;31/03/2017;5;BAILLEUL - PRINTEMPS : 1 intervention(s), John FRIEDA : 4 intervention(s);29;316.64;5;65;02 repas a 14.50 Euro, 3 repas a 12.00 Euro;;;;;;;;3;;;;;;;;;;;;;;;;;;;;;;
01157;00001;31/03/2017;36;FORTE ANIMATION - PRINTEMPS : 11 intervention(s), FORTE FORMATION - PRINTEMPS : 25 intervention(s);130.5;1397.65;19;288;011 repas a 16.00 Euro, 8 repas a 14.00 Euro;;;;;;;;39;;;;;;;;;;;;;;;;;;;;;;
01942;00001;31/03/2017;21;FORTE ANIMATION - PRINTEMPS : 21 intervention(s);147;1434.72;21;294;021 repas a 14.00 Euro;;;;;;;;;;;;;;;;;;;;;;;;;;;;;;
01880;00001;31/03/2017;23;BAILLEUL - PRINTEMPS : 3 intervention(s), EA ANIMATION : 9 intervention(s), EMBRYOLISSE ANIMATIONS : 9 intervention(s), LEA NATURE JONZAC : 2 intervention(s);154;1503.04;23;310.5;023 repas a 13.50 Euro;;;;;;;;;;;;;;;;;;;;;;7;;;;;;;;
01865;00001;31/03/2017;6;FORTE ANIMATION - PRINTEMPS : 6 intervention(s);42;409.92;6;84;06 repas a 14.00 Euro;;;;;;;;;;;;;;;;;;;;;;;;;;;;;;
01904;00001;31/03/2017;11;BAILLEUL - PRINTEMPS : 1 intervention(s), FORTE ANIMATION - PRINTEMPS : 9 intervention(s), ISDIN - AURIGA - FLORAME-IXAGE : 1 intervention(s);77;751.52;11;143;011 repas a 13.00 Euro;;;;;;;;;;;;;;;;;;;;;;;;;;;;;;
01648;00001;31/03/2017;9;BAILLEUL - PRINTEMPS : 2 intervention(s), BIOCYTE : 5 intervention(s), MELVITA : 2 intervention(s);63;614.88;9;110;07 repas a 12.00 Euro, 2 repas a 13.00 Euro;;;;;;;;;;;;;;;;;;;;;;;;;;;;;;
01405;00001;31/03/2017;9;MERITENE : 9 intervention(s);63;614.88;9;121.5;09 repas a 13.50 Euro;;;;;;;;;;;;;;;;;;;;;;;;;;;;;;
01920;00001;31/03/2017;13;MERITENE : 13 intervention(s);91;888.16;13;169;013 repas a 13.00 Euro;;;;;;;;;;;;;;;;;;;;;;;;;;;;;;
01717;00001;31/03/2017;12;FORTE ANIMATION - PRINTEMPS : 12 intervention(s);84;819.84;12;168;012 repas a 14.00 Euro;;;;;;;;;;;;;;;;;;;;;;;;;;;;;;
01866;00001;31/03/2017;13;DERMINA : 5 intervention(s), ERBORIAN : 2 intervention(s), ERBORIAN GRANDS MAGASINS : 3 intervention(s), John FRIEDA : 3 intervention(s);85;960.92;13;186;05 repas a 14.00 Euro, 5 repas a 15.50 Euro, 2 repas a 12.00 Euro, 1 repas a 14.50 Euro;;;;;;;;2;;;;;;;;;;;;;;;;;;;;;;
01926;00001;31/03/2017;8;MERITENE : 8 intervention(s);56;546.56;8;104;08 repas a 13.00 Euro;;;;;;;;;;;;;;;;;;;;;;;;;;;;;;
01943;00001;31/03/2017;13;MERITENE : 13 intervention(s);91;888.16;13;169;013 repas a 13.00 Euro;;;;;;;;;;;;;;;;;;;;;;;;;;;;;;
01949;00001;31/03/2017;7;MERITENE : 7 intervention(s);49;478.24;7;91;07 repas a 13.00 Euro;;;;;;;;;;;;;;;;;;;;;;;;;;;;;;
01850;00001;31/03/2017;32;FORTE FORMATION - PRINTEMPS : 26 intervention(s), MERITENE : 6 intervention(s);98;997.92;15;213;09 repas a 14.00 Euro, 6 repas a 14.50 Euro;;;;;;;;17;;;;;;;;;;;;;;;;;;;;;;
01652;00001;31/03/2017;18;FORTE FORMATION - PRINTEMPS : 18 intervention(s);38;429.4;6;84;06 repas a 14.00 Euro;;;;;;;;12;;;;;;;;;;;;;;;;;;;;;;
01910;00001;31/03/2017;12;BAILLEUL - PRINTEMPS : 4 intervention(s), FORTE ANIMATION - PRINTEMPS : 8 intervention(s);84;819.84;12;184;04 repas a 15.00 Euro, 8 repas a 15.50 Euro;;;;;;;;8;;;;;;;;;;;;;;;;;;;;;;
01658;00001;31/03/2017;2;DERMAGOR : 2 intervention(s);14;136.64;2;31;02 repas a 15.50 Euro;;;;;;;;3;;;;;;;;;;;;;;;;;;;;;;
01896;00001;31/03/2017;1;ERBORIAN GRANDS MAGASINS : 1 intervention(s);7;91;1;15.5;01 repas a 15.50 Euro;;;;;;;;;;;;;;;;;;;;;;;;;;;;;;
01317;00001;31/03/2017;12;BIOCYTE : 3 intervention(s), ERBORIAN : 3 intervention(s), MELVITA : 6 intervention(s);84;819.84;12;186;012 repas a 15.50 Euro;;;;;;;;18;;;;;;;;;;;;;;;;;;;;;;
01845;00001;31/03/2017;5;ERBORIAN GRANDS MAGASINS : 2 intervention(s), John FRIEDA : 1 intervention(s), OCCITANE : 2 intervention(s);32;412;5;74;01 repas a 12.00 Euro, 4 repas a 15.50 Euro;;;;;;;;1;;;;;;;;;;;;;;;;;;;;;;
01842;00001;31/03/2017;14;ERBORIAN : 4 intervention(s), MELVITA : 10 intervention(s);98;956.48;14;210;014 repas a 15.00 Euro;;;;;;;;;;;;;;;;;;;;;;;;;;;;;;
01637;00001;31/03/2017;24;FORTE ANIMATION - PRINTEMPS : 24 intervention(s);168;1639.68;24;336;024 repas a 14.00 Euro;;;;;;;;;;;;;;;;;;;;;;;;;;;;;;
01955;00001;31/03/2017;1;MERITENE : 1 intervention(s);7;68.32;1;15.5;01 repas a 15.50 Euro;;;;;;;;1.5;;;;;;;;;;;;;;;;;;;;;;
01682;00001;31/03/2017;10;ERBORIAN : 2 intervention(s), ERBORIAN GRANDS MAGASINS : 1 intervention(s), MELVITA : 7 intervention(s);70;705.88;10;155;010 repas a 15.50 Euro;;;;;;;;13.5;;;;;;;;;;;;;;;;;;;;;;
01768;00001;31/03/2017;16;MERITENE : 16 intervention(s);112;1093.12;16;208;016 repas a 13.00 Euro;;;;;;;;;;;;;;;;;;;;;;;;;;;;;;
01929;00001;31/03/2017;6;MERITENE : 6 intervention(s);42;409.92;6;78;06 repas a 13.00 Euro;;;;;;;;;;;;;;;;;;;;;;;;;;;;;;
01555;00001;31/03/2017;14;FORTE ANIMATION - PRINTEMPS : 12 intervention(s), INEBIOS : 2 intervention(s);98;1218;14;182;014 repas a 13.00 Euro;;;;;;;;;;;;;;;;;;;;;;;;;;;;;;
01922;00001;31/03/2017;7;MERITENE : 7 intervention(s);49;478.24;7;94.5;07 repas a 13.50 Euro;;;;;;;;;;;;;;;;;;;;;;;;;;;;;;
01939;00001;31/03/2017;13;MERITENE : 13 intervention(s);91;888.16;13;169;013 repas a 13.00 Euro;;;;;;;;;;;;;;;;;;;;;;;;;;;;;;
01645;00001;31/03/2017;4;LEA NATURE JONZAC : 1 intervention(s), MERITENE : 3 intervention(s);28;273.28;4;58;04 repas a 14.50 Euro;;;;;;;;;;;;;;;;;;;;;;;;;;;;;;
01794;00001;31/03/2017;12;FORTE ANIMATION - PRINTEMPS : 12 intervention(s);84;819.84;12;186;012 repas a 15.50 Euro;;;;;;;;18;;;;;;;;;;;;;;;;;;;;;;
01762;00001;31/03/2017;18;FORTE FORMATION - PRINTEMPS : 18 intervention(s);39;440.7;6;84;06 repas a 14.00 Euro;;;;;;;;12;;;;;;;;;;;;;;;;;;;;;;
01680;00001;31/03/2017;9;ERBORIAN : 2 intervention(s), ERBORIAN GRANDS MAGASINS : 1 intervention(s), MELVITA : 6 intervention(s);63;637.56;9;111.5;08 repas a 12.00 Euro, 1 repas a 15.50 Euro;;;;;;;;;;;;;;;;;;;;;;;;;;;;;;
01332;00001;31/03/2017;1;DERMAGOR : 1 intervention(s);7;68.32;1;15.5;01 repas a 15.50 Euro;;;;;;;;1.5;;;;;;;;;;;;;;;;;;;;;;
01937;00001;31/03/2017;14;MERITENE : 14 intervention(s);98;956.48;14;182;014 repas a 13.00 Euro;;;;;;;;;;;;;;;;;;;;;;;;;;;;;;
01846;00001;31/03/2017;25;FORTE ANIMATION - PRINTEMPS : 1 intervention(s), FORTE FORMATION - PRINTEMPS : 24 intervention(s);63;656.32;10;141.5;09 repas a 14.00 Euro, 1 repas a 15.50 Euro;;;;;;;;19;;;;;;;;;;;;;;;;;;;;;;
01284;00001;31/03/2017;7;BIOCYTE : 4 intervention(s), FORTE ANIMATION - PRINTEMPS : 3 intervention(s);49;478.24;7;105;07 repas a 15.00 Euro;;;;;;;;;;;;;;;;;;;;;;;;;;;;;;
