01076;00001;COLOMBIE;MAGALI;L;;268034218709955;P;34 RUE DU CLOCHER;;;85470;BRETIGNOLLES-SUR-MER;FR;22/03/1968;ROANNE;FR;F;;;1;NCAD6;2;2;$E;Animateur;551A;0;0;1;BQUE1;COLOMBIE MAGALI;CREDIT MUTUEL;CMCIFR2A;FR76;1027;8072;3000;0201;6250;112;01/03/2017;31/03/2017;01/03/2017;31/03/2017;2;2098;001;008;1;120;18/02/2011;
01081;00001;CRIADO;MURIELLE;E;;268027654033037;D;6 RUE DES GENTIANES;;;66250;ST LAURENT DE LA SALANQUE;FR;21/02/1968;ROUEN;FR;F;;;2;NCAD6;2;2;$E;Animateur;551A;0;0;1;BQUE1;CRIADO MURIELLE;BPS SAINT LAURENT;CCBPFRPPPPG;FR76;1660;7002;6709;4546;7001;856;01/03/2017;31/03/2017;01/03/2017;31/03/2017;2;2098;001;008;1;120;14/03/2011;
01093;00001;DENIS;BRIGITTE;E;;263019712419790;M;15 BIS BLD DU RIOU;RESIDENCE PARC DES MIMOSAS;;06400;CANNES;FR;27/01/1963;ST CLAUDE (GUADELOUPE);FR;F;;;1;NCAD6;2;2;$E;Animateur;551A;0;0;1;BQUE1;DENIS BRIGITTE;BNP PARIBAS;BNPAFRPPXXX;FR76;3000;4014;9700;0009;5282;427;01/03/2017;31/03/2017;01/03/2017;31/03/2017;2;2098;001;008;1;120;26/01/2011;
01094;00001;AUBRY;KARINE;E;;278119568002536;P;3 RUE DES PANORAMAS;;;95190;GOUSSAINVILLE;FR;17/11/1978;VILLIERS LE BEL;FR;F;;;0;NCAD6;2;2;$E;Animateur;551A;0;0;1;BQUE1;AUBRY KARINE;BNP;BNPAFRPPXXX;FR76;3000;4006;0800;0000;9858;065;01/03/2017;31/03/2017;01/03/2017;31/03/2017;2;2098;001;008;1;120;03/02/2011;
01096;00001;AYDOGAN;GHISLAINE;L;;271039920817093;C;44 RUE DE LA HAIE LE COMTE;BAT SUREAU - APPT 53;;54130;ST MAX;FR;01/03/1971;EMIDAG;TUR;F;;;0;NCAD6;2;2;$E;Animateur;551A;0;0;1;BQUE1;AYDOGAN GHISLAINE;BPOP LORRAINE;CCBPFRPPMTZ;FR76;1470;7000;6706;7190;3072;560;01/03/2017;31/03/2017;01/03/2017;31/03/2017;2;2098;001;008;1;120;08/02/2011;
01110;00001;GORCE;ANNE;E;LE GUELL;262072710307960;M;31, RUE DES GRANGES;;;37550;SAINT AVERTIN;FR;19/07/1962;BOURG ACHARD;FR;F;;;2;NCAD6;2;2;$E;Animateur;551A;0;0;1;BQUE1;GORCE ANNE;BNP PARIBAS;BNPAFRPPXXX;FR76;3000;4022;0700;0001;7916;314;01/03/2017;31/03/2017;01/03/2017;31/03/2017;2;2098;001;008;1;120;05/04/2011;
01117;00001;DUCERF;JACQUELINE;E;;265064221832267;M;19 RUE DENIS PAPIN;;;42100;SAINT ETIENNE;FR;19/06/1965;ST ETIENNE;FR;F;;;0;NCAD6;2;2;$E;Animateur;551A;0;0;1;BQUE1;DUCERF JACQUELINE;CREDIT AGRICOLE LOIRE HAUTE-LOIRE;;FR76;1450;6044;1051;2372;8800;064;01/03/2017;31/03/2017;01/03/2017;31/03/2017;2;2098;001;008;1;120;17/03/2011;
01123;00001;CELLE;NICOLE;L;;261126938228582;K;41 A RUE PROFESSEUR DEPERET;;;69160;TASSIN LA DEMI LUNE;FR;29/12/1961;LYON;FR;F;;;1;NCAD6;2;2;$E;Animateur;551A;0;0;1;BQUE1;CELLE NICOLE;SOCIETE GENERALE;SOGEFRPPXXX;FR76;3000;3012;0900;0501;7948;178;01/03/2017;31/03/2017;01/03/2017;31/03/2017;2;2098;001;008;1;120;01/04/2011;
01157;00001;PAZ LARUE;CLAIRE;L;LARUE;287073201306457;C;2255 ROUTE D EN SURAN;;;32600;ENDOUFIELLE;FR;20/07/1987;AUCH;FR;F;;;0;NCAD6;2;2;$E;Animateur;551A;0;0;1;BQUE1;PAZ LARUE CLAIRE;CAISSE D EPARGNE MIDI PYRENEES;CEPAFRPP313;FR76;1313;5000;8004;2667;4991;243;01/03/2017;31/03/2017;01/03/2017;31/03/2017;2;2098;001;008;1;120;08/09/2011;
01171;00001;DEXMIER;SYLVIE;E;;264101629228953;K;14 RUE S DU HAMEAU DE LA RIVE;;;85300;CHALLANS;FR;28/10/1964;RUFFEC;FR;F;;;0;NCAD6;2;2;$E;Animateur;551A;0;0;1;BQUE1;DEXMIER SYLVIE;CREDIT MUTUEL SUD OUEST;CCBPFRPP219;FR76;1721;9406;2080;4191;5075;417;01/03/2017;31/03/2017;01/03/2017;31/03/2017;2;2098;001;008;1;120;23/09/2011;
01216;00001;JOURDREN;JENNY;E;;279063726115938;C;RESIDENCE LES HAUT D AMADES;12 ALLEE DE NIERT;BAT LES AMANDIERS APPART 103;64100;BAYONNE;FR;21/06/1979;TOURS;FR;F;;;0;NCAD6;2;2;$E;Animateur;551A;0;0;1;BQUE1;JOURDREN JENNY;CREDIT AGRICOLE TOURAINE-POITOU;AGRIFRPP894;FR76;1940;6370;5682;7844;5000;170;01/03/2017;31/03/2017;01/03/2017;31/03/2017;2;2098;001;008;1;120;22/03/2012;
01221;00001;GUINES;ELISABETH;E;;264075626020170;C;19 RESIDENCE PARC ER LANN;;;56500;MOREAC;FR;27/07/1964;VANNES;FR;F;;;0;NCAD6;2;2;$E;Animateur;551A;0;0;1;BQUE1;GUINES ELISABETH;CREDIT MUTUEL BRETAGNE ;CCFRFRPP;FR76;3005;6003;6303;6300;5066;453;01/03/2017;31/03/2017;01/03/2017;31/03/2017;2;2098;001;008;1;120;17/06/2015;
01229;00001;BLAS;LAETITIA;L;;284063018922143;C;APPARTEMENT 7;3 RUE SAINTE AGNES;;30900;NIMES;FR;20/06/1984;NIMES;FR;F;;;0;NCAD6;2;2;$E;Animateur;551A;0;0;1;BQUE1;BLAS LAETITIA;CREDIT AGRICOLE DU LANGUEDOC;AGRIFRPP835;FR76;1350;6100;0008;5626;9500;189;01/03/2017;31/03/2017;01/03/2017;31/03/2017;2;2098;001;008;1;120;03/03/2012;
01284;00001;ZOLTEK;ALLISON;L;;287042901927191;C;54/21 CHEMIN DES CHAUMIERES;PORTE 21 BAT 54 2 EME ETAGE;;59650;VILLENEUVE D\'ASCQ;FR;21/04/1987;BREST;FR;F;;;0;NCAD6;2;2;$E;Animateur;551A;0;0;1;BQUE1;ZOLTEK ALLISON;SOCIETE GENERALE;SOGEFRPPXXX;FR76;3000;3012;8900;0507;7087;587;01/03/2017;31/03/2017;01/03/2017;31/03/2017;2;2098;001;008;1;120;11/05/2012;
01286;00001;GUILLON;VIRGINIE;E;;278120318505788;C;19 ROUTE DES PYRENEES;;;64510;BALIROS;FR;12/12/1978;MONTLUCON;FR;F;;;0;NCAD6;2;2;$E;Animateur;551A;0;0;1;BQUE1;GUILLON VIRGINIE;SOCIETE GENERALE;SOGEFRPPXXX;FR76;3000;3000;1000;0505;2531;143;01/03/2017;31/03/2017;01/03/2017;31/03/2017;2;2098;001;008;1;120;05/05/2012;
01302;00001;BRUNO;SONIA;E;SORIA;261061305594971;M;55 CHEMIN DE CHATEAU GOMBERT;BAT A2 - LE VAL DES PINS;;13013;MARSEILLE;FR;02/06/1961;MARSEILLE;FR;F;;;1;NCAD6;2;2;$E;Animateur;551A;0;0;1;BQUE1;BRUNO SONIA;CREDIT DU NORD CASSIS;SMCTFR2A;FR76;3007;7042;9219;8525;0030;022;01/03/2017;31/03/2017;01/03/2017;31/03/2017;2;2098;001;008;1;120;09/06/2012;
01317;00001;ROUSSEAU RAIMBAULT;CATHERINE;E;;261127504811126;C;RESIDENCE LA TOISON D OR 1 N29;;;66420;LE BARCARES;FR;27/12/1961;MONTREUIL;FR;F;;;0;NCAD6;2;2;$E;Animateur;551A;0;0;1;BQUE1;ROUSSEAU RAIMBAULT CATHERINE;CREDIT AGRICOLE SUD MEDITERRANEE;AGRIFRPP871;FR76;1710;6000;2219;0849;1900;058;01/03/2017;31/03/2017;01/03/2017;31/03/2017;2;2098;001;008;1;120;09/07/2012;
01326;00001;DECOSTER;CAROLINE;E;JORRE;263045741211928;C;17 RESIDENCE NORMANDIE;;;60300;APREMONT;FR;13/04/1963;LONGEVILLE LES METZ;FR;F;;;1;NCAD6;2;2;$E;Animateur;551A;0;0;1;BQUE1;DECOSTER CAROLINE;;CRLYFRPP;FR26;3000;2062;3200;0002;3738;L91;01/03/2017;31/03/2017;01/03/2017;31/03/2017;2;2098;001;008;1;120;25/03/2016;
01332;00001;ZANNESE;ORNELLA;L;;287064715702610;C;10 CHEMIN DU PORT DE L HOMME;APPT 04;;33360;LATRESNE;FR;13/06/1987;MARMANDE;FR;F;12AX5547;14/11/2015;0;NCAD6;2;2;$E;Animateur;551A;0;0;1;BQUE1;ZANNESE ORNELLA;CREDIT AGRICOLE D AQUITAINE;AGRIFRPP833;FR76;1330;6000;1166;0111;6207;062;01/03/2017;31/03/2017;01/03/2017;31/03/2017;2;2098;001;008;1;120;17/09/2012;
01333;00001;GIRAUD;MARYLINE;E;MELET;273030319005046;M;4 ROUTE DES DOLATS;;;03500;LORIGES;FR;10/03/1973;MOULINS;FR;F;;;2;NCAD6;2;2;$E;Animateur;551A;0;0;1;BQUE1;GIRAUD MARYLINE;CE AUVERGNE ET LIMOUSIN;CEPAFRPP871;FR76;1871;5002;0004;8540;0185;487;01/03/2017;31/03/2017;01/03/2017;31/03/2017;2;2098;001;008;1;120;06/10/2012;
01351;00001;DELIAS;SYLVIE;E;BONNO;268095616530731;M;114 RUE DU PLACYRE;;;38500;VOIRON;FR;14/09/1968;PLOERMEL;FR;F;;;2;NCAD6;2;2;$E;Animateur;551A;0;0;1;BQUE1;DELIAS SYLVIE;BNP PARIS BAS;BNPAFRPPXXX;FR76;3000;4013;1700;0002;4485;118;01/03/2017;31/03/2017;01/03/2017;31/03/2017;2;2098;001;008;1;120;22/10/2012;
01382;00001;LACROIX;MARIE FRANCE;E;;266011616701156;K;4 LE BOURG OUEST;;;33190;FLOUDES;FR;20/01/1966;JARNAC;FR;F;;;0;NCAD6;2;2;$E;Animateur;551A;0;0;1;BQUE1;LACROIX MARIE FRANCE;CE AQUITAINE POITOU CHARENTES;CEPAFRPP333;FR76;1333;5003;0104;7718;6761;186;01/03/2017;31/03/2017;01/03/2017;31/03/2017;2;2098;001;008;1;120;06/02/2013;
01386;00001;BOUHERAT;AHLEM;E;;284099402802789;C;21 BIS BOULEVARD GAMBETTA;;;27000;EVREUX;FR;04/09/1984;CRETEIL;FR;F;;;0;NCAD6;2;2;$E;Animateur;551A;0;0;1;BQUE1;BOUHERAT AHLEM;BANQUE POSTALE;PSSTFRPPPAR;FR53;2004;1000;0157;2611;3S02;071;01/03/2017;31/03/2017;01/03/2017;31/03/2017;2;2098;001;008;1;120;06/02/2013;
01387;00001;MIANTOURILA;LETICIA;E;;270109932407471;C;120 RUE YOURI GAGARINE;;;94800;VILLEJUIF;FR;25/10/1970;KIBOSSI;FR;F;;;1;NCAD6;2;2;$E;Animateur;551A;0;0;1;BQUE1;MIANTOURILA LETICIA;CIC VILLEJUIF;PSSTFRPPPAR;FR35;2004;1000;0167;5443;2E02;080;01/03/2017;31/03/2017;01/03/2017;31/03/2017;2;2098;001;008;1;120;11/02/2013;
01405;00001;PITON;CECILE;E;;285095924904956;C;90 QUAI DE LA GARE ;RESIDENCE LES VOYAGEURS;VILLA 14;30260;QUISSAC;FR;29/09/1985;FOURMIES;FR;F;;;1;NCAD6;2;2;$E;Animateur;551A;0;0;1;BQUE1;PITON CECILE;CREDIT AGRICOLE;AGRIFRPP835;FR76;1350;6100;0092;3351;3600;081;01/03/2017;31/03/2017;01/03/2017;31/03/2017;2;2098;001;008;1;120;05/03/2013;
01406;00001;LE QUELLEC;SOPHIE;E;;283093854404523;P;55 BIS AVENUE DES PIONNIERS DU VERCORS;;;26190;SAINT JEAN EN ROYANS;FR;20/09/1983;VIENNE;FR;F;;;1;NCAD6;2;2;$E;Animateur;551A;0;0;1;BQUE1;LE QUELLEC SOPHIE;LYONNAISE DE BANQUE;CMCIFRPP;FR76;1009;6182;6800;0452;3640;174;01/03/2017;31/03/2017;01/03/2017;31/03/2017;2;2098;001;008;1;120;12/03/2013;
01452;00001;PAULS;JOELLE;E;;283013419902195;C;1 RUE VIALA;APPT C13;;34690;FABREGUES;FR;22/01/1983;PEZENAS;FR;F;;;0;NCAD6;2;2;$E;Animateur;551A;0;0;1;BQUE1;PAULS JOELLE;CREDIT AGRICOLE;AGRIFRPP835;FR76;1350;6100;0093;7796;8200;138;01/03/2017;31/03/2017;01/03/2017;31/03/2017;2;2098;001;008;1;120;21/08/2013;
01540;00001;ISBLED;HELENE;E;;279045612102742;P;PONT MEEN;;;29600;PLOURIN LES MORLAIX;FR;05/04/1979;LORIENT;FR;F;;;0;NCAD6;2;2;$E;Animateur;551A;0;0;1;BQUE1;ISBLED HELENE;BANQUE POPULAIRE;CCBPFRPPREN;FR76;1670;7001;7511;1192;5424;660;01/03/2017;31/03/2017;01/03/2017;31/03/2017;2;2098;001;008;1;120;10/02/2014;
01555;00001;TISON;NATHALIE;E;;271107854506480;M;217 CARRAIRE RAMPALE;;;83270;SAINT CYR SUR MER;FR;23/10/1971;ST CYR L ECOLE;FR;F;;;0;NCAD6;2;2;$E;Animateur;551A;0;0;1;BQUE1;TISON NATHALIE;SOCIETE GENERALE;SOGEFRPPXXX;FR76;3000;3024;3300;0505;4434;992;01/03/2017;31/03/2017;01/03/2017;31/03/2017;2;2098;001;008;1;120;12/04/2014;
01574;00001;ILLAN;KAREN;E;;281041729908561;C;107 BOULEVARD MARCHANT DUPLESSIS;;;37000;TOURS;FR;23/04/1981;ROCHEFORT SUR MER;FR;F;;;0;NCAD6;2;2;$E;Animateur;551A;0;0;1;BQUE1;ILLAN KAREN;CAISSE EPARGNE;CEPAFRPP333;FR76;1333;5004;0104;9256;1937;813;01/03/2017;31/03/2017;01/03/2017;31/03/2017;2;2098;001;008;1;120;25/04/2014;
01581;00001;AIMARD;MARIE JEANNE;E;;266078408708956;P;525 ROUTE DE ROUSSET NOVEZAN;;;26110;VENTEROL;FR;28/07/1966;ORANGE;FR;F;;;0;NCAD6;2;2;$E;Animateur;551A;0;0;1;BQUE1;AIMARD MARIE JEANNE;CAISSE EPARGNE;CEPAFRPP131;FR76;1131;5000;0104;9688;0468;727;01/03/2017;31/03/2017;01/03/2017;31/03/2017;2;2098;001;008;1;120;19/11/2015;
01587;00001;BODIN;CORINNE;E;PORCO;262038313705114;M;7 LOTISSEMENT CHANTE OISEAU;CHEMIN DES FAUVETTES;;83140;SIX FOUR LES PLAGES;FR;06/03/1962;TOULON;FR;F;;;1;NCAD6;2;2;$E;Animateur;551A;0;0;1;BQUE1;BODIN CORINNE;CREDIT AGRICOLE;AGRIFRPP839;FR76;1390;6000;1985;0259;7401;356;01/03/2017;31/03/2017;01/03/2017;31/03/2017;2;2098;001;008;1;120;20/06/2014;
01599;00001;COMBRET;CHRISTINE;E;;259076335200782;D;LES GIRAUDS MAILLET;;;03190;HAUT BOCAGE;FR;22/07/1959;SAINT GERMAIN LEMBRON;FR;F;;;0;NCAD6;2;2;$E;Animateur;551A;0;0;1;BQUE1;COMBRET CHRISTINE;BANQUE NUGER;BNUGFR21;FR76;1348;9025;9315;5629;0030;011;01/03/2017;31/03/2017;01/03/2017;31/03/2017;2;2098;001;008;1;120;02/09/2014;
01611;00001;ACKER;BRIGITTE;E;;263031315521188;C;1 RUE LONGUE;;;13360;ROQUEVAIRE;FR;31/03/1963;MARSEILLE;FR;F;;;0;NCAD6;2;2;$E;Animateur;551A;0;0;1;BQUE1;ACKER BRIGITTE;CREDIT LYONNAIS;CRLYFRPP;FR91;3000;2028;3200;0002;6339;K30;01/03/2017;31/03/2017;01/03/2017;31/03/2017;2;2098;001;008;1;120;10/10/2014;
01637;00001;STEPANIAN;MARYSE;E;;260067817405950;M;23 CHEMIN DE BEL AIR;;;85180;CHATEAU D OLONNE;FR;27/06/1960;CORBEIL ESSONNES;FR;F;;;0;NCAD6;2;2;$E;Animateur;551A;0;0;1;BQUE1;STEPANIAN MARYSE;CR;AGRIRERXXXX;FR76;1990;6009;7490;0080;1462;837;01/03/2017;31/03/2017;01/03/2017;31/03/2017;2;2098;001;008;1;120;15/11/2014;
01645;00001;VERNON;SANDRINE;E;;256090269101869;C;3 ROUTE DE VILLERY;;;10320;JAVERNANT;FR;03/09/1956;SAINT QUENTIN;FR;F;;;0;NCAD6;2;2;$E;Animateur;551A;0;0;1;BQUE1;VERNON SANDRINE;CREDIT AGRICOLE;AGRIFRPP887;FR76;1870;6000;0021;1556;6600;030;01/03/2017;31/03/2017;01/03/2017;31/03/2017;2;2098;001;008;1;120;05/12/2014;
01647;00001;MUR;ELODIE;E;;280073155515284;D;32 ALLEE DU CANIGOU;;;31770;COLOMIERS;FR;06/07/1980;TOULOUSE;FR;F;;;2;NCAD6;2;2;$E;Animateur;551A;0;0;1;BQUE1;MUR ELODIE;SOCIETE GENERALE;SOGEFRPP;FR76;3000;3021;1600;0521;5412;896;01/03/2017;31/03/2017;01/03/2017;31/03/2017;2;2098;001;008;1;120;01/08/2016;
01648;00001;PERROUIN;CHARLOTTE;E;;292104400324543;C;3 BOULEVARD DE L EPINAY;APPARTEMENT 2205;;44470;CARQUEFOU;FR;15/10/1992;ANCENIS;FR;F;;;0;NCAD6;2;2;$E;Animateur;551A;0;0;1;BQUE1;PERROUIN CHARLOTTE;CAISSE EPARGENE;CEPAFRPP444;FR76;1444;5004;0004;2315;6194;853;01/03/2017;31/03/2017;01/03/2017;31/03/2017;2;2098;001;008;1;120;06/12/2014;
01652;00001;ROHRBACHER;SARAH;E;;292085123027662;C;16 rue de la cheze;;;35310;ST THURIAL;FR;12/08/1992;EPERNAY;FR;F;;;0;NCAD6;2;2;$E;Animateur;551A;0;0;1;BQUE1;ROHRBACHER SARAH;SOCIETE GENERALE;SOGEFRPP;FR76;3000;3016;9200;0501;7290;936;01/03/2017;31/03/2017;01/03/2017;31/03/2017;2;2098;001;008;1;120;02/02/2015;
01653;00001;DORAND;MURIEL;E;;275093930009493;K;6 RUE DE LA CROIX;;;21910;CORCELLES LES CITEAUX;FR;23/09/1975;LONS LE SAUNIER;FR;F;;;0;NCAD6;2;2;$E;Animateur;551A;0;0;1;BQUE1;DORAND MURIEL;CREDIT AGRICOLE;AGRIFRPP810;FR76;1100;6210;3152;1322;0725;950;01/03/2017;31/03/2017;01/03/2017;31/03/2017;2;2098;001;008;1;120;27/12/2014;
01658;00001;ROSSI;AUDREY;E;SPINOUSA;272011305601664;C;9 ALLEE DOMINIQUE INGRES;;;13500;MARTIGUES;FR;04/01/1972;MARTIGUES;FR;F;;;2;NCAD6;2;2;$E;Animateur;551A;0;0;1;BQUE1;ROSSI AUDREY;;SOGEFRPP;FR76;3000;3012;4500;0501;8582;794;01/03/2017;31/03/2017;01/03/2017;31/03/2017;2;2098;001;008;1;120;22/12/2014;
01663;00001;HAJRI;TESNIM;E;OMRANI;285049935119258;S;1 ALLEE ANDRE MOLLET;;;91230;MONTGERON;FR;06/04/1985;TUNISIE;TUN;E;0603135039;15/01/2021;2;NCAD6;2;2;$E;Animateur;551A;0;0;1;BQUE1;HAJRI TESNIM;;SOGEFRPP;FR76;3000;3009;4600;0501;3509;523;01/03/2017;31/03/2017;01/03/2017;31/03/2017;2;2098;001;008;1;120;12/02/2015;
01680;00001;WITTENBERG;INGRID;E;;276054523413511;D;10 BIS AVENUE DE L EUROPE;;;24700;MONTPON MENESTEROL;FR;09/05/1976;ORLEANS;FR;F;;;0;NCAD6;2;2;$E;Animateur;551A;0;0;1;BQUE1;WITTENBERG INGRID;;CMCIFR2A;FR76;1027;8364;1600;0110;7330;110;01/03/2017;31/03/2017;01/03/2017;31/03/2017;2;2098;001;008;1;120;05/03/2015;
01682;00001;TALEB;SALWA;E;;286116015917861;C;11 RUE SAINT JUST;APPART 204;;93210;LA PLAINE SAINT DENIS;FR;28/11/1986;COMPIEGNE;FR;F;;;0;NCAD6;2;2;$E;Animateur;551A;0;0;1;BQUE1;TALEB SALWA;;CRLYFRPP;FR40;3000;2084;3300;0021;0199;K25;01/03/2017;31/03/2017;01/03/2017;31/03/2017;2;2098;001;008;1;120;06/03/2015;
01686;00001;MESSEGUE;MAXIME;E;;185073306329301;K;56 BOULEVARD VOLTAIRE;;;75011;PARIS;FR;13/07/1985;BORDEAUX;FR;F;;;0;NCAD6;2;2;$E;Animateur;551A;0;0;1;BQUE1;MESSEGUE MAXIME;;CMBRFR2BARK;FR76;1558;9335;4606;0019;5784;010;01/03/2017;31/03/2017;01/03/2017;31/03/2017;2;2098;001;008;1;120;07/04/2015;
01689;00001;FABRE;NATHALIE;E;;272024610202135;C;5 RUE DES CORCIERS;APPARTEMENT 1;;40130;CAPBRETON;FR;09/02/1972;FIGEAC;FR;F;;;0;NCAD6;2;2;$E;Animateur;551A;0;0;1;BQUE1;FABRE NATHALIE;;AGRIFRPP833;FR76;1330;6009;8600;0534;5394;804;01/03/2017;31/03/2017;01/03/2017;31/03/2017;2;2098;001;008;1;120;24/04/2015;
01692;00001;FERRARI;PAULINE;E;;282063726117371;C;5 RUE BOULITTE;;;75014;PARIS;FR;22/06/1982;TOURS;FR;F;;;0;NCAD6;2;2;$E;Animateur;551A;0;0;1;BQUE1;FERRARI PAULINE;;CEPAFRPP751;FR76;1751;5900;0004;8289;6029;261;01/03/2017;31/03/2017;01/03/2017;31/03/2017;2;2098;001;008;1;120;15/05/2015;
01703;00001;MORDACQUE;CAROLE;E;BLARY;263036276506907;M;56 B RUE DU ROMELAERE;;;62500;CLAIRMARAIS;FR;18/03/1963;ST OMER;FR;F;;;0;NCAD6;2;2;$E;Animateur;551A;0;0;1;BQUE1;MORDACQUE CAROLE;;AGRIFRPP867;FR76;1670;6000;6010;2366;7800;085;01/03/2017;31/03/2017;01/03/2017;31/03/2017;2;2098;001;008;1;120;12/05/2015;
01717;00001;PRANGE;BEATRICE;E;;270089200403966;C;10 RUE PORTE MADELEINE;BATIMENT A;;45000;ORLEANS;FR;23/08/1970;ASNIERES SUR SEINE;FR;F;;;0;NCAD6;2;2;$E;Animateur;551A;0;0;1;BQUE1;PRANGE BEATRICE;;PSSTFRPPMAR;FR50;2004;1010;0821;0322;8G02;997;01/03/2017;31/03/2017;01/03/2017;31/03/2017;2;2098;001;008;1;120;01/06/2016;
01724;00001;BARRE;MATHILDE;E;;291116806634391;P;4 RUE DU BADISCHHOF;;;68140;MUNSTER;FR;08/11/1991;COLMAR;FR;F;;;0;NCAD6;2;2;$E;Animateur;551A;0;0;1;BQUE1;BARRE MATHILDE;;CEPAFRPP670;FR76;1670;5090;1704;0860;0102;173;01/03/2017;31/03/2017;01/03/2017;31/03/2017;2;2098;001;008;1;120;23/08/2016;
01741;00001;HARDY;SOPHIE;E;;265105145417734;K;2 ROUTE DU MESNIL;;;51130;VERTUS;FR;15/10/1965;REIMS;FR;F;;;1;NCAD6;2;2;$E;Animateur;551A;0;0;1;BQUE1;HARDY SOPHIE;;CMCIFR2A;FR76;1562;9088;5900;0776;4354;140;01/03/2017;31/03/2017;01/03/2017;31/03/2017;2;2098;001;008;1;120;07/10/2015;
01755;00001;LECUYER;KARINE;E;;277011126204764;C;11 RUE DU ROMARIN;;;30470;AIMARGUES;FR;17/01/1977;NARBONNE;FR;F;;;1;NCAD6;2;2;$E;Animateur;551A;0;0;1;BQUE1;LECUYER KARINE;;SMCTFR2AXXX;FR76;3007;7041;4922;0695;0030;003;01/03/2017;31/03/2017;01/03/2017;31/03/2017;2;2098;001;008;1;120;08/10/2015;
01761;00001;BUSSENE;CAROLINE;E;;277075959902627;C;273 BOULEVARD DU POINT DU JOUR ;BAT B - LE CARRE LAURENTIN;;06700;SAINT LAURENT DU VAR ;FR;04/07/1977;TOURCOING;FR;F;;;1;NCAD6;2;2;$E;Animateur;551A;0;0;1;BQUE1;BUSSENE CAROLINE;;BNPAFRPPXXX;FR76;3000;4018;6900;0004;2741;065;01/03/2017;31/03/2017;01/03/2017;31/03/2017;2;2098;001;008;1;120;24/10/2015;
01762;00001;WAGNER;SANDRINE;E;PIERRAT;275068838307633;M;1 ALLEE DES PAQUERETTES;;;54840;VELAINE EN HAYE;FR;22/06/1975;REMIREMONT;FR;F;;;1;NCAD6;2;2;$E;Animateur;551A;0;0;1;BQUE1;WAGNER SANDRINE;;CEPAFRPP513;FR76;1513;5005;0004;2100;5714;984;01/03/2017;31/03/2017;01/03/2017;31/03/2017;2;2098;001;008;1;120;27/10/2015;
01765;00001;AUDIGER;ANNE;E;;262095617819646;K;38 RUE SALVADOR ALLENDE;APPART 512;;93400;SAINT OUEN;FR;07/09/1962;PONTIVY;FR;F;;;3;NCAD6;2;2;$E;Animateur;551A;0;0;1;BQUE1;AUDIGER ANNE;;CMCIFR2A;FR76;1027;8061;4500;0200;4720;186;01/03/2017;31/03/2017;01/03/2017;31/03/2017;2;2098;001;008;1;120;03/12/2015;
01768;00001;TARIS;ANNIE;E;DOMINGUES;258088002106554;D;49 QUAI ALBERT 1ER;;;83700;SAINT RAPHAEL;FR;10/08/1958;AMIENS;FR;F;;;0;NCAD6;2;2;$E;Animateur;551A;0;0;1;BQUE1;TARIS ANNIE;;PSSTFRPPCNE;FR02;1001;1000;2011;7219;5902;F31;01/03/2017;31/03/2017;01/03/2017;31/03/2017;2;2098;001;008;1;120;05/11/2015;
01776;00001;GARCIA;NATHALIE;E;;275019940104817;C;96 AVENUE JEAN JAURES  - APPT 63;RESIDENCE EUROPA BAT B;;30900;NIMES;FR;28/01/1975;MONTREAL;FR;F;;;0;NCAD6;2;2;$E;Animateur;551A;0;0;1;BQUE1;GARCIA NATHALIE;;PSSTFRPPMON;FR90;2004;1010;0912;7284;7A03;035;01/03/2017;31/03/2017;01/03/2017;31/03/2017;2;2098;001;008;1;120;04/12/2015;
01793;00001;DEZON-POMAREL;CHRYSTEL;E;;276099521007488;C;8 RUE JEAN NOUAILHER;;;87000;LIMOGES;FR;21/09/1976;ENGHIEN LES BANS;FR;F;;;0;NCAD6;2;2;$E;Animateur;551A;0;0;1;BQUE1;DEZON-POMAREL CHRYSTEL;;PSSTFRPPLIM;FR02;2004;1010;0603;4387;9H02;714;01/03/2017;31/03/2017;01/03/2017;31/03/2017;2;2098;001;008;1;120;19/01/2016;
01794;00001;VIALLARD;CATHERINE;E;CAUX;264097849602672;M;18 RUE DE L ORMOY;;;77720;AUBEPIERRE;FR;24/09/1964;LE PLESSIS TREVISE;FR;F;;;1;NCAD6;2;2;$E;Animateur;551A;0;0;1;BQUE1;VIALLARD CATHERINE;;PSSTFRPPSCE;FR57;2004;1010;1263;9865;2X03;375;01/03/2017;31/03/2017;01/03/2017;31/03/2017;2;2098;001;008;1;120;15/01/2016;
01801;00001;MERLE;ELISA;E;;294026938323175;C;42 RUE SAINT ROMAIN;;;69008;LYON;FR;09/02/1994;LYON;FR;F;;;0;NCAD6;2;2;$E;Animateur;551A;0;0;1;BQUE1;MERLE ELISA;;AGRIFRPP878;FR76;1780;6008;9904;1137;3144;979;01/03/2017;31/03/2017;01/03/2017;31/03/2017;2;2098;001;008;1;120;02/02/2016;
01819;00001;MIUS;CORINNE;E;;263017675803139;D;7 b RUE DES FONDS;;;76190;YVETOT;FR;25/01/1963;YVETOT;FR;F;;;0;NCAD6;2;2;$E;Animateur;551A;0;0;1;BQUE1;MIUS CORINNE;;CCBPFRPPLIL;FR76;1350;7001;1515;2382;8190;982;01/03/2017;31/03/2017;01/03/2017;31/03/2017;2;2098;001;008;1;120;04/05/2016;
01827;00001;KEHILI;SALIMA;E;;278059935255623;K;18 RUE DU PORTUGAL;;;54500;VANDOEUVRE LES NANCY;FR;29/05/1978;MAGHNIA;FR;F;;;1;NCAD6;2;2;$E;Animateur;551A;0;0;1;BQUE1;KEHILI SALIMA;;AGRIFRPP861;FR76;1610;6990;0486;4302;6387;291;01/03/2017;31/03/2017;01/03/2017;31/03/2017;2;2098;001;008;1;120;20/05/2016;
01837;00001;LE ROY;ALEXIA;E;;290109306407172;K;69 RUE DU PORT;BAT C502;;93300;AUBERVILLIERS;FR;20/10/1990;ROSNY SOUS BOIS;FR;F;;;0;NCAD6;2;2;$E;Animateur;551A;0;0;1;BQUE1;LE ROY ALEXIA;;CMCIFRPPXXX;FR76;3006;6102;6100;0203;4650;167;01/03/2017;31/03/2017;01/03/2017;31/03/2017;2;2098;001;008;1;120;22/07/2016;
01842;00001;SERMET;VICTORIA;E;;291013805310016;P;605 RUE CHARLES FRANCOIS DAUBIGNY;;;38460;OPTEVOZ;FR;22/01/1991;BOURGOIN JAILLIEU;FR;F;;;0;NCAD6;2;2;$E;Animateur;551A;0;0;1;BQUE1;SERMET VICTORIA;;SOGEFRPP;FR76;3000;3012;0800;0502;7126;236;01/03/2017;31/03/2017;01/03/2017;31/03/2017;2;2098;001;008;1;120;05/08/2016;
01844;00001;JBILOU;MINA;E;;273029204406354;C;7 RUE DU CLOS SAINT MICHEL;;;94550;CHEVILLY LARUE;FR;24/02/1973;LEVALLOIS PERRET;FR;F;;;0;NCAD6;2;2;$E;Animateur;551A;0;0;1;BQUE1;JBILOU MINA;;BNPAFRPPNEU;FR76;3000;4004;4700;0004;3841;423;01/03/2017;31/03/2017;01/03/2017;31/03/2017;2;2098;001;008;1;120;05/09/2016;
01845;00001;SERGENT;VALERIE;E;DURAND;268121402732104;K;1 ROUTE DE LA CHARRETTE;PORTE 21;;74230;THONES;FR;26/12/1968;AUNAY SUR AURON;FR;F;;;1;NCAD6;2;2;$E;Animateur;551A;0;0;1;BQUE1;SERGENT VALERIE;;NORDFRPP;FR76;3007;6021;3826;0419;0030;094;01/03/2017;31/03/2017;01/03/2017;31/03/2017;2;2098;001;008;1;120;06/09/2016;
01846;00001;ZIMMERMANN;CHLOE;E;;292089501335415;C;144 BIS RUE D ARGENTEUIL;;;95530;LA FRETTE SUR SEINE;FR;25/08/1992;ARGENTEUIL;FR;F;;;0;NCAD6;2;2;$E;Animateur;551A;0;0;1;BQUE1;ZIMMERMANN CHLOE;;CEPAFRPP751;FR76;1751;5006;0004;0272;0123;717;01/03/2017;31/03/2017;01/03/2017;31/03/2017;2;2098;001;008;1;120;30/07/2016;
01850;00001;ROBIN;FLORENCE;E;NICOLAS;271019304823313;M;46 RUE DE LA ROUQUETTE;;;31240;SAINT JEAN;FR;27/01/1971;MONTREUIL SOUS BOIS;FR;F;;;2;NCAD6;2;2;$E;Animateur;551A;0;0;1;BQUE1;ROBIN FLORENCE;;AGRIFRPP831;FR76;1310;6005;0010;4624;3510;153;01/03/2017;31/03/2017;01/03/2017;31/03/2017;2;2098;001;008;1;120;23/08/2016;
01851;00001;GERARD;CELINE;E;;272027932904372;K;203 RUE DE LA LOIRE;APPART 35;;16000;ANGOULEME;FR;15/02/1972;THOUARS;FR;F;;;2;NCAD6;2;2;$E;Animateur;551A;0;0;1;BQUE1;GERARD CELINE;;CCBPFRPPBDX;FR76;1090;7002;1094;2193;8469;652;01/03/2017;31/03/2017;01/03/2017;31/03/2017;2;2098;001;008;1;120;23/08/2016;
01853;00001;FIEDOS;NATHALIE;E;;273116544004724;C;9 RUE PAUL ELUARD;RESIDENCE LES CITEAUX;BAT B APPT 002;64000;PAU;FR;07/11/1973;TARBES;FR;F;;;0;NCAD6;2;2;$E;Animateur;551A;0;0;1;BQUE1;FIEDOS NATHALIE;;PSSTFRPPTOU;FR63;2004;1010;1604;2883;4R03;709;01/03/2017;31/03/2017;01/03/2017;31/03/2017;2;2098;001;008;1;120;12/09/2016;
01856;00001;PARUNAKIAN;SEBASTIEN;R;;183026902903435;C;69 BOULEVARD DES CANUTS;FORMALIM - LE CENTRE APOGEE;;69004;LYON;FR;10/02/1983;BRON;FR;F;;;0;NCAD6;2;2;$E;Animateur;551A;0;0;1;BQUE1;PARUNAKIAN SEBASTIEN;;CEPAFRPP382;FR76;1382;5002;0008;0107;0538;838;01/03/2017;31/03/2017;01/03/2017;31/03/2017;2;2098;001;008;1;120;23/08/2016;
01862;00001;FONING;MYLENE;E;;273106317803082;V;22 RUE DE LA FONTAINE DU BAC;;;63000;CLERMONT FERRAND;FR;15/10/1973;ISSOIRE;FR;F;;;0;NCAD6;2;2;$E;Animateur;551A;0;0;1;BQUE1;FONING MYLENE;;AGRIFRPP868;FR76;1680;6043;0070;8074;5000;009;01/03/2017;31/03/2017;01/03/2017;31/03/2017;2;2098;001;008;1;120;15/09/2016;
01864;00001;GUILBON;MAGALI;E;;278059110305166;D;19 ROUTE DE CUBLAC;;;19520;LA RIVIERE DE MANSAC;FR;21/05/1978;BRETIGNY SUR ORGE;FR;F;;;1;NCAD6;2;2;$E;Animateur;551A;0;0;1;BQUE1;GUILBON MAGALI;;AGRIFRPP817;FR76;1170;6110;2152;5079;2000;437;01/03/2017;31/03/2017;01/03/2017;31/03/2017;2;2098;001;008;1;120;26/09/2016;
01865;00001;PEREZ;CATHERINE ANTOINETTE;E;;265128400703421;C;39 RUE LOUIS POUZOL;;;84130;LE PONTET;FR;05/12/1965;AVIGNON;FR;F;;;0;NCAD6;2;2;$E;Animateur;551A;0;0;1;BQUE1;PEREZ CATHERINE ANTOINETTE;;CMCIFR2A;FR76;1027;8065;1000;0532;4994;059;01/03/2017;31/03/2017;01/03/2017;31/03/2017;2;2098;001;008;1;120;22/09/2016;
01866;00001;PREVOST;LAURE;E;VELON;271027107604370;C;7 RUE LAURENT VIBERT;;;69006;LYON;FR;11/02/1971;CHALON-SUR-SAONE;FR;F;;;1;NCAD6;2;2;$E;Animateur;551A;0;0;1;BQUE1;PREVOST LAURE;;AGRIFRPP879;FR76;1790;6000;3206;5476;1300;193;01/03/2017;31/03/2017;01/03/2017;31/03/2017;2;2098;001;008;1;120;06/10/2016;
01872;00001;GILMAN;CATHERINE;E;SOUBIRAN;258065951201571;P;LE ROY - MAUSSAC;;;46250;GINDOU;FR;02/06/1958;ROUBAIX;FR;F;;;0;NCAD6;2;2;$E;Animateur;551A;0;0;1;BQUE1;GILMAN CATHERINE;;PSSTFRPPTOU;FR73;2004;1010;1613;4832;5M03;791;01/03/2017;31/03/2017;01/03/2017;31/03/2017;2;2098;001;008;1;120;03/12/2016;
01877;00001;LESPINASSE;BRIGITTE;E;;253104207132978;D;465 ROUTE DE JULIENAS;;;71000;MACON;FR;02/10/1953;LE COTEAU;FR;F;;;0;NCAD6;2;2;$E;Animateur;551A;0;0;1;BQUE1;LESPINASSE BRIGITTE;;AGRIFRPP878;FR76;1780;6002;9479;6138;9400;061;01/03/2017;31/03/2017;01/03/2017;31/03/2017;2;2098;001;008;1;120;21/11/2016;
01878;00001;OLLIVIER;SANDRINE;E;;270089559801636;C;1 RUE ALOYSE CLAUSS;;;67210;OBERNAI;FR;06/08/1970;SOISY SOUS MONTHORENCY;FR;F;;;0;NCAD6;2;2;$E;Animateur;551A;0;0;1;BQUE1;OLLIVIER SANDRINE;;CCBPFRPPMTZ;FR76;1470;7500;3470;1996;3387;749;01/03/2017;31/03/2017;01/03/2017;31/03/2017;2;2098;001;008;1;120;07/11/2016;
01880;00001;PELLOUIN;CAROLINE;E;;290066938207734;C;4 RUE CLAUDIUS PIONCHON;;;69003;LYON;FR;12/06/1990;LYON;FR;F;;;0;NCAD6;2;2;$E;Animateur;551A;0;0;1;BQUE1;PELLOUIN CAROLINE;;CEPAFRPP382;FR76;1382;5002;0004;6962;8197;597;01/03/2017;31/03/2017;01/03/2017;31/03/2017;2;2098;001;008;1;120;03/11/2016;
01881;00001;BOULAIRE;MYRIAM;E;DE SANTIS;272037511231037;M;6 RUE FONTAN;;;56100;LORIENT;FR;21/03/1972;PARIS 12 EME;FR;F;;;2;NCAD6;2;2;$E;Animateur;551A;0;0;1;BQUE1;BOULAIRE MYRIAM;;CMBRFR2BARK;FR76;1558;9569;0201;5307;8524;001;01/03/2017;31/03/2017;01/03/2017;31/03/2017;2;2098;001;008;1;120;20/01/2017;
01882;00001;BERNARDIN;ELODIE;E;;288061730604565;C;8 RUE DU LAVOIR;;;17400;ASNIERES LA GIRAUD;FR;28/06/1988;ROYAN;FR;F;;;1;NCAD6;2;2;$E;Animateur;551A;0;0;1;BQUE1;BERNARDIN ELODIE;;CMCIFR2A;FR76;1551;9390;9300;0227;3620;113;01/03/2017;31/03/2017;01/03/2017;31/03/2017;2;2098;001;008;1;120;15/11/2016;
01885;00001;GRASSO;JULIETTE;E;;291024221841987;C;109 RUE DE VERDUN;;;92150;SURESNES;FR;11/02/1991;SAINT ETIENNE;FR;F;;;0;NCAD6;2;2;$E;Animateur;551A;0;0;1;BQUE1;GRASSO JULIETTE;;CCBPFRPPLYO;FR76;1390;7000;0081;3069;8719;060;01/03/2017;31/03/2017;01/03/2017;31/03/2017;2;2098;001;008;1;120;18/11/2016;
01886;00001;CRUCIFIX;MARYLENE;E;;275105145410603;K;29 RUE CHICAGO;;;40130;CAPBRETON;FR;09/10/1975;REIMS;FR;F;;;1;NCAD6;2;2;$E;Animateur;551A;0;0;1;BQUE1;CRUCIFIX MARYLENE;;CMCIFR2A;FR76;1027;8023;8200;0200;1790;195;01/03/2017;31/03/2017;01/03/2017;31/03/2017;2;2098;001;008;1;120;02/12/2016;
01887;00001;CONIL;PASCALE;E;;262020407003484;K;LES JARDINS DE CESAR  36 ALLEE TITE LIVE;VILLA LOTISSEMENT;;83600;FREJUS;FR;02/02/1962;DIGNE LES BAINS;FR;F;;;0;NCAD6;2;2;$E;Animateur;551A;0;0;1;BQUE1;CONIL PASCALE;;CRLYFRPP;FR26;3000;2039;5900;0003;9585;W20;01/03/2017;31/03/2017;01/03/2017;31/03/2017;2;2098;001;008;1;120;02/12/2016;
01895;00001;BAALI;AMER;R;;185019935261988;M;53 AVENUE RAYMOND ARON;;;92160;ANTONY;FR;03/01/1985;TIZI OUZOU;DZ;E; 2JNA01Q7C;14/09/2026;0;NCAD6;2;2;$E;Animateur;551A;0;0;1;BQUE1;BAALI AMER;;CRLYFRPP;FR05;3000;2004;8500;0037;0313;Q34;01/03/2017;31/03/2017;01/03/2017;31/03/2017;2;2098;001;008;1;120;10/12/2016;
01896;00001;ROUSSEAU;ISABELLE;E;FOURRIER;285045313007001;M;13 DOMAINE DU LUGET;;;53970;NUILLE SUR VICOIN;FR;13/04/1985;LAVAL;FR;F;;;0;NCAD6;2;2;$E;Animateur;551A;0;0;1;BQUE1;ROUSSEAU ISABELLE;;CMCIFR2A;FR76;1548;9047;6200;0766;8640;167;01/03/2017;31/03/2017;01/03/2017;31/03/2017;2;2098;001;008;1;120;09/12/2016;
01898;00001;ALLIOT;ISABELLE;E;;271052227824430;C;1 AVENUE GENERAL DE GAULLE;DOMAINE CIMBAT 3 ENTREE 31;PORTE 76;33290;BLANQUEFORT;FR;24/05/1971;SAINT BRIEUC;FR;F;;;0;NCAD6;2;2;$E;Animateur;551A;0;0;1;BQUE1;ALLIOT ISABELLE;;CRLYFRPP;FR26;3000;2080;3600;0003;3283;E82;01/03/2017;31/03/2017;01/03/2017;31/03/2017;2;2098;001;008;1;120;26/12/2016;
01899;00001;FRITZ;CAROLINE;E;;264021305542989;C;479 RUE JACQUES LOUIS DAVID;RES LES SABINES BAT B3;;34070;MONTPELLIER;FR;24/02/1964;MARSEILLE;FR;F;;;0;NCAD6;2;2;$E;Animateur;551A;0;0;1;BQUE1;FRITZ CAROLINE;;BMMMFR2A;FR16;1336;9000;0100;3001;3839;M68;01/03/2017;31/03/2017;01/03/2017;31/03/2017;2;2098;001;008;1;120;16/12/2016;
01901;00001;GUILLERMO;LAURE;E;DETHON;270041038725120;M;6 RUE FLORENT ;;;30420;CALVISSON;FR;26/04/1970;TROYES;FR;F;;;2;NCAD6;2;2;$E;Animateur;551A;0;0;1;BQUE1;GUILLERMO LAURE;;AGRIFRPP835;FR76;1350;6100;0007;8816;1400;172;01/03/2017;31/03/2017;01/03/2017;31/03/2017;2;2098;001;008;1;120;17/01/2017;
01903;00001;CARLIEZ;ALEXANDRA;E;;287085917013790;K;490 RUE FERRER;;;59287;GUESNAIN;FR;30/08/1987;DECHY;FR;F;;;0;NCAD6;2;2;$E;Animateur;551A;0;0;1;BQUE1;CARLIEZ ALEXANDRA;;CEPAFRPP627;FR76;1627;5500;0004;5267;7670;118;01/03/2017;31/03/2017;01/03/2017;31/03/2017;2;2098;001;008;1;120;13/01/2017;
01904;00001;PERRIN;AURELIE;E;GAUTHIER;279045432905437;M;8 ROUTE DE NORROY;;;54150;MAINVILLE;FR;23/04/1979;LUNEVILLE;FR;F;;;2;NCAD6;2;2;$E;Animateur;551A;0;0;1;BQUE1;PERRIN AURELIE;;SOGEFRPP;FR76;3000;3014;6100;0502;3054;067;01/03/2017;31/03/2017;01/03/2017;31/03/2017;2;2098;001;008;1;120;17/01/2017;
01905;00001;GERMAIN;AURELIE;E;GERMAIN;282042620201137;K;25 AVENUE LIEUTENANT CHEYNIS;;;26160;LA BATIE ROLLAND;FR;25/04/1982;MONTJOUX;FR;F;;;2;NCAD6;2;2;$E;Animateur;551A;0;0;1;BQUE1;GERMAIN AURELIE;;SOGEFRPP;FR76;3000;3014;0900;0508;1028;352;01/03/2017;31/03/2017;01/03/2017;31/03/2017;2;2098;001;008;1;120;06/01/2017;
01906;00001;DUCHEMIN;FLORIANE;L;;293091827928919;K;16 ALLEE VERLAINE;;;37540;SAINT CYR SUR LOIRE;FR;27/09/1993;VIERZON;FR;F;;;0;NCAD6;2;2;$E;Animateur;551A;0;0;1;BQUE1;DUCHEMIN FLORIANE;;AGRIFRPP848;FR76;1480;6180;0070;0836;8361;302;01/03/2017;31/03/2017;01/03/2017;31/03/2017;2;2098;001;008;1;120;17/01/2017;
01907;00001;HUNAULT;NOEMIE;L;;285036129301377;C;2 RUE DU PERCHE;;;28340;LA FERTE VIDAME;FR;03/03/1985;MONTAGNE AU PERCHE;FR;F;;;0;NCAD6;2;2;$E;Animateur;551A;0;0;1;BQUE1;HUNAULT NOEMIE;;CMCIFR2A;FR76;1027;8371;8000;0103;9300;116;01/03/2017;31/03/2017;01/03/2017;31/03/2017;2;2098;001;008;1;120;17/01/2017;
01910;00001;ROMAIN;ALEXANDRA;L;ROMAIN ;291129550027209;C;7 DOMAINE DE LA COTE NOIRE;;;92500;RUEIL MALMAISON ;FR;10/12/1991;PONTOISE;FR;F;;;0;NCAD6;2;2;$E;Animateur;551A;0;0;1;BQUE1;ROMAIN ALEXANDRA;;SOGEFRPP;FR76;3000;3041;1000;0501;2259;845;01/03/2017;31/03/2017;01/03/2017;31/03/2017;2;2098;001;008;1;120;17/01/2017;
01913;00001;EL FATIHI;CHAHRAZADE;E;;282043139504592;C;56 AVENUE DES MINIMES;;;31200;TOULOUSE;FR;28/04/1982;MURET;FR;F;;;0;NCAD6;2;2;$E;Animateur;551A;0;0;1;BQUE1;EL FATIHI CHAHRAZADE;;AGRIFRPP831;FR76;1310;6005;0015;3432;3910;150;01/03/2017;31/03/2017;01/03/2017;31/03/2017;2;2098;001;008;1;120;10/01/2017;
01914;00001;BODIOU;SANDY;L;BODIOU;291082923228554;K;20 ALLEE PAUL NEIS;;;29000;QUIMPER;FR;02/08/1991;QUIMPER;FR;F;;;1;NCAD6;2;2;$E;Animateur;551A;0;0;1;BQUE1;BODIOU SANDY;;AGRIFRPP829;FR76;1290;6000;4100;2465;1321;987;01/03/2017;31/03/2017;01/03/2017;31/03/2017;2;2098;001;008;1;120;09/01/2017;
01915;00001;BAEZA;CLARISSE;E;BAEZA;294073417239093;C;2 B RUE DES METAIRIES;;;34510;FLORENSAC;FR;13/07/1994;MONTPELLIER;FR;F;;;0;NCAD6;2;2;$E;Animateur;551A;0;0;1;BQUE1;BAEZA CLARISSE;;AGRIFRPP835;FR76;1350;6100;0063;1865;1900;038;01/03/2017;31/03/2017;01/03/2017;31/03/2017;2;2098;001;008;1;120;17/01/2017;
01917;00001;LHOIR;PAULINE;E;;293056017537413;P;4 B RUE DE CHEVIGNE;;;51100;REIMS;FR;22/05/1993;CREIL;FR;F;;;0;NCAD6;2;2;$E;Animateur;551A;0;0;1;BQUE1;LHOIR PAULINE;;CMCIFRPP;FR76;3002;7172;7700;0300;5820;359;01/03/2017;31/03/2017;01/03/2017;31/03/2017;2;2098;001;008;1;120;17/01/2017;
01918;00001;PANNIER;PASCALE;E;;259017623102348;D;10 RUE EMILE ZOLA;;;76300;SOTTEVILLE LES ROUEN ;FR;13/01/1959;ELBEUF;FR;F;;;0;NCAD6;2;2;$E;Animateur;551A;0;0;1;BQUE1;PANNIER PASCALE;;;FR76;3002;7160;5900;0227;0840;141;01/03/2017;31/03/2017;01/03/2017;31/03/2017;2;2098;001;008;1;120;01/02/2017;
01919;00001;JOLY;EMILIE;E;;289055939209915;P;201 RUE DU FORT;;;59680;FERRIERE LA GRANDE;FR;18/05/1989;MAUBEUGE;FR;F;;;0;NCAD6;2;2;$E;Animateur;551A;0;0;1;BQUE1;JOLY EMILIE;;CEPAFRPP627;FR76;1627;5500;0004;8072;4856;174;01/03/2017;31/03/2017;01/03/2017;31/03/2017;2;2098;001;008;1;120;28/01/2017;
01920;00001;PORCON;MELANIE;E;;271096005717643;K;2 RUE DES FAVELOUNS;;;83340;LE THORONET;FR;28/09/1971;BEAUVAIS;FR;F;;;1;NCAD6;2;2;$E;Animateur;551A;0;0;1;BQUE1;PORCON MELANIE;;AGRIFRPP891;FR76;1910;6000;1243;6376;3486;185;01/03/2017;31/03/2017;01/03/2017;31/03/2017;2;2098;001;008;1;120;27/02/2017;
01922;00001;TRECANT;SYLVIE;E;;258026061207623;D;2D RUE PIERRE MARTIN ;;;35000;RENNES;FR;15/02/1958;SENLIS;FR;F;;;1;NCAD6;2;2;$E;Animateur;551A;0;0;1;BQUE1;TRECANT SYLVIE;;CRLYFRPP;FR50;3000;2080;5600;0000;5025;D36;01/03/2017;31/03/2017;01/03/2017;31/03/2017;2;2098;001;008;1;120;20/03/2017;
01923;00001;BOYER;VIRGINIE;E;;274066307502260;C;1 RUE DES DOMES ;BATIMENT 02 CLOS ANTOINE ;;63170;PERIGNAT LES SARLIEVE;FR;05/06/1974;CHAMALIERES;FR;F;;;1;NCAD6;2;2;$E;Animateur;551A;0;0;1;BQUE1;BOYER VIRGINIE;;AGRIFRPP868;FR76;1680;6001;0002;6830;7500;152;01/03/2017;31/03/2017;01/03/2017;31/03/2017;2;2098;001;008;1;120;27/02/2017;
01924;00001;CARDENAS;JULIA;E;;294101305422152;C;3 AVENUE PASTEUR ;;;13500;MARTIGUES;FR;11/10/1994;MARIGNANE;FR;F;;;0;NCAD6;2;2;$E;Animateur;551A;0;0;1;BQUE1;CARDENAS JULIA;;CEPAFRPP131;FR76;1131;5000;0104;0381;7790;004;01/03/2017;31/03/2017;01/03/2017;31/03/2017;2;2098;001;008;1;120;07/02/2017;
01926;00001;QUALLA;CHRISTINE;E;;267049913106405;C;6 RUE LEON UNGEMACH;;;67300;SCHILTIGHEIM;FR;15/04/1967;OUGREE;BE;E;;;1;NCAD6;2;2;$E;Animateur;551A;0;0;1;BQUE1;QUALLA CHRISTINE;;CMCIFR2A;FR76;1027;8010;1000;0448;7614;061;01/03/2017;31/03/2017;01/03/2017;31/03/2017;2;2098;001;008;1;120;27/02/2017;
01928;00001;PASZKOWIAK;ANNICK;E;GRARD;261106217805887;M;108 RUE DE LONDRES;;;62300;LENS;FR;28/10/1961;BRUAY;FR;F;;;0;NCAD6;2;2;$E;Animateur;551A;0;0;1;BQUE1;PASZKOWIAK ANNICK;;CMCIFR2A;FR76;1562;9026;5300;0207;6130;162;01/03/2017;31/03/2017;01/03/2017;31/03/2017;2;2098;001;008;1;120;27/02/2017;
01929;00001;THEVENET;MARINE;E;;295093411101847;C;7 AVENUE MARIE CURIE;;;66400;CERET;FR;08/09/1995;GANGES;FR;F;;;0;NCAD6;2;2;$E;Animateur;551A;0;0;1;BQUE1;THEVENET MARINE;;CRLYFRPP;FR72;3000;2031;5800;0034;5621;D80;01/03/2017;31/03/2017;01/03/2017;31/03/2017;2;2098;001;008;1;120;27/02/2017;
01930;00001;KLEIN;CHRISTIANE;E;;257013919806655;M;01 B CHEMIN DU MOULIN ;;;39700;AMANGE ;FR;26/01/1957;DOLE;FR;F;;;0;NCAD6;2;2;$E;Animateur;551A;0;0;1;BQUE1;KLEIN CHRISTIANE;;CEPAFRPP213;FR76;1213;5003;0004;8836;3585;913;01/03/2017;31/03/2017;01/03/2017;31/03/2017;2;2098;001;008;1;120;27/02/2017;
01931;00001;CHOLLET;LAETITIA;E;;285034221825378;P;14 RUE GEORGES TEISSIER;;;42000;SAINT ETIENNE;FR;14/03/1985;SAINT ETIENNE;FR;F;;;0;NCAD6;2;2;$E;Animateur;551A;0;0;1;BQUE1;CHOLLET LAETITIA;;CCFRFRPP;FR76;3005;6001;7201;7203;0418;129;01/03/2017;31/03/2017;01/03/2017;31/03/2017;2;2098;001;008;1;120;27/02/2017;
01933;00001;DEBONT;SANDRINE;E;DESCHAMPS;283081425801748;M;7 RUE EDOUARD VAILLANT;MEZIDON CANON;;14270;MEZIDON VALLEE D AUGE;FR;06/08/1983;FALAISE;FR;F;;;0;NCAD6;2;2;$E;Animateur;551A;0;0;1;BQUE1;DEBONT SANDRINE;;CMCIFR2A;FR76;1027;8021;3100;0205;1520;137;01/03/2017;31/03/2017;01/03/2017;31/03/2017;2;2098;001;008;1;120;27/02/2017;
01934;00001;COUSSEAU;ISABELLE;E;MAHUE;276074000101909;M;2 LOT DES CERISIERS;;;33190;LAMOTHE LANDERRON;FR;19/07/1976;AIRE SUR L\'ADOUR;FR;F;;;2;NCAD6;2;2;$E;Animateur;551A;0;0;1;BQUE1;COUSSEAU ISABELLE;;CEPAFRPP333;FR76;1333;5003;0104;9704;1145;367;01/03/2017;31/03/2017;01/03/2017;31/03/2017;2;2098;001;008;1;120;27/02/2017;
01936;00001;CERAN;OZDEN;E;ASLAN;275049920807211;S;6 RUE JEAN PIERRE TIMBAUD;;;94120;FONTENAY SOUS BOIS ;FR;12/04/1975;ANKARA;TUR;E;9403006819;01/04/2023;2;NCAD6;2;2;$E;Animateur;551A;0;0;1;BQUE1;CERAN OZDEN;;CRLYFRPP;FR90;3000;2007;4800;0005;0063;A28;01/03/2017;31/03/2017;01/03/2017;31/03/2017;2;2098;001;008;1;120;27/02/2017;
01937;00001;ZAZOUA;ZOUBIDA;E;;276029935235580;K;12  RUE D ALSACE;;;57970;YUTZ;FR;01/02/1976;SIDI BEL ABBES;DZ;F;;;2;NCAD6;2;2;$E;Animateur;551A;0;0;1;BQUE1;ZAZOUA ZOUBIDA;;CMCIFRPP;FR76;3008;7333;2700;0393;5080;164;01/03/2017;31/03/2017;01/03/2017;31/03/2017;2;2098;001;008;1;120;27/02/2017;
01938;00001;DERIVRY;PATRICIA;E;;259017505502122;M;10 RUE JACQUES CARTIER;;;34740;VENDARGUES;FR;18/01/1959;PANTIN;FR;F;;;1;NCAD6;2;2;$E;Animateur;551A;0;0;1;BQUE1;DERIVRY PATRICIA;;CRLYFRPP;FR46;3000;2030;0000;0015;3134;J40;01/03/2017;31/03/2017;01/03/2017;31/03/2017;2;2098;001;008;1;120;27/02/2017;
01939;00001;VANCAEMERBEKE;ELODIE;E;;290015935043055;C;5 BIS RUE DE FLANDRE;RESIDENCE LOUISE DE BETTIGNIES RONCHIN;A34 3EME ETAGE;59790;RONCHIN;FR;26/01/1990;LILLE;FR;F;;;0;NCAD6;2;2;$E;Animateur;551A;0;0;1;BQUE1;VANCAEMERBEKE ELODIE;;CCBPFRPPLIL;FR76;1350;7000;5631;0836;0194;457;01/03/2017;31/03/2017;01/03/2017;31/03/2017;2;2098;001;008;1;120;27/02/2017;
01940;00001;AZAIRI;SOUAD;E;;287039501814994;C;2 RUE RAOUL SBERO;BAT C 1ER ETAGE APPT 311;;95120;ERMONT;FR;28/03/1987;ARGENTEUIL;FR;F;;;3;NCAD6;2;2;$E;Animateur;551A;0;0;1;BQUE1;AZAIRI SOUAD;;PSSTFRPPSCE;FR29;2004;1010;1260;6703;2R03;350;01/03/2017;31/03/2017;01/03/2017;31/03/2017;2;2098;001;008;1;120;03/03/2017;
01942;00001;PEDRENO;JESSICA;E;;292066925934065;C;459 ROUTE DU BUSSIN;;;38780;EYZIN PINET;FR;28/06/1992;VENISSIEUX;FR;F;;;0;NCAD6;2;2;$E;Animateur;551A;0;0;1;BQUE1;PEDRENO JESSICA;;CMCIFRPP;FR76;1009;6180;1300;0439;3660;507;01/03/2017;31/03/2017;01/03/2017;31/03/2017;2;2098;001;008;1;120;27/02/2017;
01943;00001;RABBAH;EVELYNE;E;;261114909910759;C;5 RUE DES GENETS ;;;49300;LE PUY SAINT BONNET;FR;19/11/1961;CHOLLET;FR;F;;;0;NCAD6;2;2;$E;Animateur;551A;0;0;1;BQUE1;RABBAH EVELYNE;;AGRIFRPP879;FR76;1790;6000;3205;0555;2000;114;01/03/2017;31/03/2017;01/03/2017;31/03/2017;2;2098;001;008;1;120;27/02/2017;
01944;00001;CZECH;ANITA;E;;258066242702607;D;11 A IMPASSE SAINT CYR;;;71240;SENNECEY LE GRAND;FR;05/06/1958;HENIN LIETARD;FR;F;;;0;NCAD6;2;2;$E;Animateur;551A;0;0;1;BQUE1;CZECH ANITA;;BNPAFRPPXXX;FR76;3000;4023;6900;0002;4082;890;01/03/2017;31/03/2017;01/03/2017;31/03/2017;2;2098;001;008;1;120;27/02/2017;
01945;00001;HAMOUMOU;SABRINA;E;;288076303204872;C;61 AVENUE DU RAINCY;;;93250;VILLEMOMBLE;FR;13/07/1988;BEAUMONT;FR;F;;;0;NCAD6;2;2;$E;Animateur;551A;0;0;1;BQUE1;HAMOUMOU SABRINA;;CMCIFRP1MON;FR76;1469;0000;0158;0000;0810;118;01/03/2017;31/03/2017;01/03/2017;31/03/2017;2;2098;001;008;1;120;02/03/2017;
01947;00001;COLON;CORINNE;E;;268049304502224;C;38 QUAI LESTRADE;;;45500;GIEN;FR;13/04/1968;LES LILAS;FR;F;;;0;NCAD6;2;2;$E;Animateur;551A;0;0;1;BQUE1;COLON CORINNE;;CCFRFRPP;FR76;3005;6007;0407;0400;1140;159;01/03/2017;31/03/2017;01/03/2017;31/03/2017;2;2098;001;008;1;120;27/02/2017;
01948;00001;JUNG;SOPHIE;E;;266125746334103;K;22 RUE ST EPVRE;;;54700;BLENOD LES PONT A MOUSSON;FR;31/12/1966;METZ;FR;F;;;0;NCAD6;2;2;$E;Animateur;551A;0;0;1;BQUE1;JUNG SOPHIE;;PSSTFRPPNCY;FR74;2004;1010;1010;2942;1N03;121;01/03/2017;31/03/2017;01/03/2017;31/03/2017;2;2098;001;008;1;120;28/02/2017;
01949;00001;REMADNI;NAIMA;E;;285119935255865;C;36 RUE MARCEL BONNET;LOGEMENT 201;;94230;CACHAN;FR;02/11/1985;BLIDA;DZ;F;;;0;NCAD6;2;2;$E;Animateur;551A;0;0;1;BQUE1;REMADNI NAIMA;;CRLYFRPP;FR21;3000;2007;6300;0004;2785;N75;01/03/2017;31/03/2017;01/03/2017;31/03/2017;2;2098;001;008;1;120;27/02/2017;
01950;00001;AMINE;HASSAN;R;;184109920501161;M;37 BOULEVARD AILLAUD;1ER ETAGE;INTERPHONE OUDDAH;13005;MARSEILLE;FR;23/10/1984;BEYROUTH;FR;E;9916059831;12/12/2018;0;NCAD6;2;2;$E;Animateur;551A;0;0;1;BQUE1;AMINE HASSAN;;PSSTFRPPMAR;FR39;2004;1010;0826;3891;4Z02;965;01/03/2017;31/03/2017;01/03/2017;31/03/2017;2;2098;001;008;1;120;27/02/2017;
01952;00001;BENOIST;ANNIE;E;CHALES;260033723915236;M;9 PASSAGE DE L ECHELLE;;;37170;CHAMBRAY LES TOURS;FR;23/03/1960;SAINT SYMPHORIEN;FR;F;;;1;NCAD6;2;2;$E;Animateur;551A;0;0;1;BQUE1;BENOIST ANNIE;;CRLYFRPP;FR45;3000;2086;0000;0011;2003;832;01/03/2017;31/03/2017;01/03/2017;31/03/2017;2;2098;001;008;1;120;13/03/2017;
01953;00001;PAGES;NOEMIE;E;;292093155579549;C;LIEU DIT BOVILA;;;46800;FARGUES;FR;25/09/1992;TOULOUSE;FR;F;;;0;NCAD6;2;2;$E;Animateur;551A;0;0;1;BQUE1;PAGES NOEMIE;;PSSTFRPPTOU;FR92;2004;1010;1612;9246;3T03;708;01/03/2017;31/03/2017;01/03/2017;31/03/2017;2;2098;001;008;1;120;23/03/2017;
01954;00001;ANDRIEU;NATHALIE;E;LEMONNIER;262013723906590;M;51 RUE DES CARNAUX;;;37510;BALLAN MIRE;FR;20/01/1962;TOURS;FR;F;;;1;NCAD6;2;2;$E;Animateur;551A;0;0;1;BQUE1;ANDRIEU NATHALIE;;CMCIFRPP;FR76;3004;7142;3600;0200;8930;107;01/03/2017;31/03/2017;01/03/2017;31/03/2017;2;2098;001;008;1;120;17/03/2017;
01955;00001;TAKACS;AUDE;E;;279099403303183;C;2 PLACE DE L EGLISE;;;78660;ALLAINVILLE AUX BOIS;FR;18/09/1979;FONTENAY SOUS BOIS;FR;F;;;0;NCAD6;2;2;$E;Animateur;551A;0;0;1;BQUE1;TAKACS AUDE;;SOGEFRPP;FR76;3000;3008;4100;0501;0250;249;01/03/2017;31/03/2017;01/03/2017;31/03/2017;2;2098;001;008;1;120;31/03/2017;
