01081;00001;CRIADO;MURIELLE;E;;268027654033037;D;6 RUE DES GENTIANES;;;66250;ST LAURENT DE LA SALANQUE;FR;21/02/1968;ROUEN;FR;F;;;2;NCAD6;2;2;$E;Animateur;551A;0;0;1;BQUE1;CRIADO MURIELLE;BPS SAINT LAURENT;CCBPFRPPPPG;FR76;1660;7002;6709;4546;7001;856;01/09/2020;30/09/2020;01/09/2020;30/09/2020;2;2098;001;008;1;120;14/03/2011;
01096;00001;AYDOGAN;GHISLAINE;L;;271039920817093;C;44 RUE DE LA HAIE LE COMTE;BAT SUREAU - APPT 53;;54130;SAINT MAX;FR;01/03/1971;EMIDAG;TUR;F;;;0;NCAD6;2;2;$E;Animateur;551A;0;0;1;BQUE1;AYDOGAN GHISLAINE;BPOP LORRAINE;CCBPFRPPMTZ;FR76;1470;7000;6706;7190;3072;560;01/09/2020;30/09/2020;01/09/2020;30/09/2020;2;2098;001;008;1;120;08/02/2011;
01110;00001;GORCE;ANNE;E;LE GUELL;262072710307960;M;31, RUE DES GRANGES;;;37550;SAINT AVERTIN;FR;19/07/1962;BOURG ACHARD;FR;F;;;2;NCAD6;2;2;$E;Animateur;551A;0;0;1;BQUE1;GORCE ANNE;BNPPARB ST AVERTIN 01433;BNPAFRPPXXX;FR76;3000;4022;0700;0001;7916;314;01/09/2020;30/09/2020;01/09/2020;30/09/2020;2;2098;001;008;1;120;05/04/2011;
01310;00001;MAUGIN;ADELE;L;;288114900702031;C;25 RUE SAINT JULIEN;4EME ETAGE;;49100;ANGERS;FR;01/11/1988;ANGERS;FR;F;;;0;NCAD6;2;2;$E;Animateur;551A;0;0;1;BQUE1;MAUGIN ADELE;ANGERS RALLIEMENT;AGRIFRPP879;FR76;1790;6000;3227;7030;2900;048;01/09/2020;30/09/2020;01/09/2020;30/09/2020;2;2098;001;008;1;120;19/06/2012;
01318;00001;RAOUX;MARIE AUDE;E;;280106938904720;M;42 RUE DE LA REPUBLIQUE;;;38230;CHARVIEU;FR;12/10/1980;LYON;FR;F;;;3;NCAD6;2;2;$E;Animateur;551A;0;0;1;BQUE1;RAOUX MARIE AUDE;BPAURA PF CHERUY;CCBPFRPPGRE;FR76;1680;7004;0082;1840;7819;695;01/09/2020;30/09/2020;01/09/2020;30/09/2020;2;2098;001;008;1;120;17/09/2012;
01386;00001;BOUHERAT;AHLEM;E;;284099402802789;C;BOULEVARD GAMBETTA;21 BIS ;;27000;EVREUX;FR;04/09/1984;CRETEIL;FR;F;;;0;NCAD6;2;2;$E;Animateur;551A;0;0;1;BQUE1;BOUHERAT AHLEM;BANQUE POSTALE -75900 PARIS CX 19;PSSTFRPPPAR;FR53;2004;1000;0157;2611;3S02;071;01/09/2020;30/09/2020;01/09/2020;30/09/2020;2;2098;001;008;1;120;06/02/2013;
01452;00001;PAULS;JOELLE;E;;283013419902195;C;1 RUE VIALA;APPT C13;;34690;FABREGUES;FR;22/01/1983;PEZENAS;FR;F;;;0;NCAD6;2;2;$E;Animateur;551A;0;0;1;BQUE1;PAULS JOELLE;CREDIT AGRICOLE;AGRIFRPP835;FR76;1350;6100;0093;7796;8200;138;01/09/2020;30/09/2020;01/09/2020;30/09/2020;2;2098;001;008;1;120;21/08/2013;
01555;00001;TISON;NATHALIE;E;;271107854506480;M;217 CARRAIRE RAMPALE;;;83270;SAINT CYR SUR MER;FR;23/10/1971;ST CYR L ECOLE;FR;F;;;0;NCAD6;2;2;$E;Animateur;551A;0;0;1;BQUE1;TISON NATHALIE;SOCIETE GENERALE BANDOL 02090;SOGEFRPPXXX;FR76;3000;3024;3300;0505;4434;992;01/09/2020;30/09/2020;01/09/2020;30/09/2020;2;2098;001;008;1;120;12/04/2014;
01599;00001;COMBRET;CHRISTINE;E;;259076335200782;D;LES GIRAUDS MAILLET;;;03190;HAUT BOCAGE;FR;22/07/1959;SAINT GERMAIN LEMBRON;FR;F;;;0;NCAD6;2;2;$E;Animateur;551A;0;0;1;BQUE1;COMBRET CHRISTINE;BANQUE NUGER MONTLUCON;BNUGFR21;FR76;1348;9025;9315;5629;0030;011;01/09/2020;30/09/2020;01/09/2020;30/09/2020;2;2098;001;008;1;120;02/09/2014;
01611;00001;ACKER;BRIGITTE;E;;263031315521188;C;66 AVENUE DES ALLIES;;;13360;ROQUEVAIRE;FR;31/03/1963;MARSEILLE;FR;F;;;0;NCAD6;2;2;$E;Animateur;551A;0;0;1;BQUE1;ACKER BRIGITTE;CREDIT LYONNAIS;CRLYFRPP;FR91;3000;2028;3200;0002;6339;K30;01/09/2020;30/09/2020;01/09/2020;30/09/2020;2;2098;001;008;1;120;10/10/2014;
01680;00001;WITTENBERG;INGRID;E;;276054523413511;D;RESIDENCE DU GOLF. LA PLAINE;COTTAGE N°5;;45240;MARCILLY EN VILLETTE;FR;09/05/1976;ORLEANS;FR;F;;;0;NCAD6;2;2;$E;Animateur;551A;0;0;1;BQUE1;WITTENBERG INGRID;CCM POITIERS HOTEL DE VILLE;CMCIFR2A;FR76;1027;8374;3500;0110;8510;156;01/09/2020;30/09/2020;01/09/2020;30/09/2020;2;2098;001;008;1;120;05/03/2015;
01703;00001;MORDACQUE;CAROLE;E;BLARY;263036276506907;M;RUE DU ROMELAERE;56 B ;;62500;CLAIRMARAIS;FR;18/03/1963;ST OMER;FR;F;;;0;NCAD6;2;2;$E;Animateur;551A;0;0;1;BQUE1;MORDACQUE CAROLE;CREDIT AGRICOLE NORD DE FRANCE;AGRIFRPP867;FR76;1670;6000;6010;2366;7800;085;01/09/2020;30/09/2020;01/09/2020;30/09/2020;2;2098;001;008;1;120;12/05/2015;
01733;00001;MBANGU;KUNDENA;E;;285079931203773;S;43 ALLEE DES LILAS;BOIS FLEURI;;77410;CLAYE SOUILLY;FR;30/07/1985;KINSHASA;ZA;E;10YAH43NF;15/12/2025;2;NCAD6;2;2;$E;Animateur;551A;0;0;1;BQUE1;MBANGU KUNDENA;LEVALLOIS ANATOLE FRANCE;SOGEFRPPXXX;FR76;3000;3038;7000;0503;3887;267;01/09/2020;30/09/2020;01/09/2020;30/09/2020;2;2098;001;008;1;120;02/09/2015;
01741;00001;HARDY;SOPHIE;E;;265105145417734;K;2 ROUTE DU MESNIL;;;51130;VERTUS;FR;15/10/1965;REIMS;FR;F;;;1;NCAD6;2;2;$E;Animateur;551A;0;0;1;BQUE1;HARDY SOPHIE;CCM EPERNAY;CMCIFR2A;FR76;1562;9088;5900;0776;4354;140;01/09/2020;30/09/2020;01/09/2020;30/09/2020;2;2098;001;008;1;120;07/10/2015;
01764;00001;RAZMARA;SORAYA;E;RAZMARA;259117507315788;M;16 RUE MOLIERE;;;92500;RUEIL MALMAISON;FR;23/11/1959;SURESNES;FR;F;;;2;NCAD6;2;2;$E;Animateur;551A;0;0;1;BQUE1;RAZMARA SORAYA;CIC RUEIL MALMAISON CENTRE;CMCIFRPP;FR76;3006;6108;4200;0200;2690;137;01/09/2020;30/09/2020;01/09/2020;30/09/2020;2;2098;001;008;1;120;03/12/2015;
01794;00001;VIALLARD;CATHERINE;E;CAUX;264097849602672;M;18 RUE DE L ORMOY;;;77720;AUBEPIERRE;FR;24/09/1964;LE PLESSIS TREVISE;FR;F;;;1;NCAD6;2;2;$E;Animateur;551A;0;0;1;BQUE1;VIALLARD CATHERINE;BANQUE POSTALE ORLEANS;PSSTFRPPSCE;FR57;2004;1010;1263;9865;2X03;375;01/09/2020;30/09/2020;01/09/2020;30/09/2020;2;2098;001;008;1;120;15/01/2016;
01843;00001;ROGAM;CAROLE;E;TREUPEL;278052227820814;M;6 RUE DU GAI SAVOIR;;;64140;BILLERE;FR;25/05/1978;SAINT BRIEUC;FR;F;;;2;NCAD6;2;2;$E;Animateur;551A;0;0;1;BQUE1;ROGAM CAROLE;BILLERE LASSANSAA (20025);AGRIFRPP869;FR76;1690;6200;2587;0189;6586;988;01/09/2020;30/09/2020;01/09/2020;30/09/2020;2;2098;001;008;1;120;27/07/2016;
01845;00001;SERGENT;VALERIE;E;DURAND;268121402732104;K;1 ROUTE DE LA CHARRETTE;PORTE 21;;74230;THONES;FR;26/12/1968;AUNAY SUR AURON;FR;F;;;1;NCAD6;2;2;$E;Animateur;551A;0;0;1;BQUE1;SERGENT VALERIE;BQUE LAYDERNIER (02851);LAYDFR2W;FR76;1022;8028;5121;3707;0030;083;01/09/2020;30/09/2020;01/09/2020;30/09/2020;2;2098;001;008;1;120;06/09/2016;
01850;00001;ROBIN;FLORENCE;E;NICOLAS;271019304823313;M;46 RUE DE LA ROUQUETTE;;;31240;SAINT JEAN;FR;27/01/1971;MONTREUIL SOUS BOIS;FR;F;;;2;NCAD6;2;2;$E;Animateur;551A;0;0;1;BQUE1;ROBIN FLORENCE;CREDIT AGRICOLE TOULOUSE ;AGRIFRPP831;FR76;1310;6005;0010;4624;3510;153;01/09/2020;30/09/2020;01/09/2020;30/09/2020;2;2098;001;008;1;120;23/08/2016;
01864;00001;GUILBON;MAGALI;E;;278059110305166;D;IMPASSE DU JARY;LA CHAISE;;19520;MANSAC;FR;21/05/1978;BRETIGNY SUR ORGE;FR;F;;;1;NCAD6;2;2;$E;Animateur;551A;0;0;1;BQUE1;GUILBON MAGALI;TULE JEAN JAURES;AGRIFRPP868;FR76;1680;6099;3966;0896;7661;514;01/09/2020;30/09/2020;01/09/2020;30/09/2020;2;2098;001;008;1;120;26/09/2016;
01866;00001;PREVOST;LAURE;E;VELON;271027107604370;C;38 RUE DE CREQUI;;;69006;LYON;FR;11/02/1971;CHALON-SUR-SAONE;FR;F;;;1;NCAD6;2;2;$E;Animateur;551A;0;0;1;BQUE1;PREVOST LAURE;CREDIT AGRICOLE ANGERS ARENES;AGRIFRPP879;FR76;1790;6000;3206;5476;1300;193;01/09/2020;30/09/2020;01/09/2020;30/09/2020;2;2098;001;008;1;120;06/10/2016;
01897;00001;LAU;ISABELLE;E;;266094604253578;D;8 ROUTE DU BOIS;;;64160;MONASSUT AUDIRACK;FR;04/09/1966;CAHORS;FR;F;;;3;NCAD6;2;2;$E;Animateur;551A;0;0;1;BQUE1;LAU ISABELLE;CENTRE FINANCIER DE BORDEAUX;PSSTFRPPBOR;FR98;2004;1010;0118;3062;6E02;206;01/09/2020;30/09/2020;01/09/2020;30/09/2020;2;2098;001;008;1;120;17/01/2017;
01919;00001;JOLY;EMILIE;E;;289055939209915;P;201 RUE DU FORT;;;59680;FERRIERE LA GRANDE;FR;18/05/1989;MAUBEUGE;FR;F;;;0;NCAD6;2;2;$E;Animateur;551A;0;0;1;BQUE1;JOLY EMILIE;CE NORD FRANCE EUROPE;CEPAFRPP627;FR76;1627;5500;0004;8072;4856;174;01/09/2020;30/09/2020;01/09/2020;30/09/2020;2;2098;001;008;1;120;28/01/2017;
01928;00001;PASZKOWIAK;ANNICK;E;GRARD;261106217805887;M;108 RUE DE LONDRES;;;62300;LENS;FR;28/10/1961;BRUAY;FR;F;;;0;NCAD6;2;2;$E;Animateur;551A;0;0;1;BQUE1;PASZKOWIAK ANNICK;CREDIT MUTUEL NORD EUROPE;CMCIFR2A;FR76;1562;9026;5300;0207;6130;162;01/09/2020;30/09/2020;01/09/2020;30/09/2020;2;2098;001;008;1;120;27/02/2017;
01944;00001;CZECH;ANITA;E;;258066242702607;D;629 CHEMIN DE L HUBAC;RESIDENCE DES LAURIERS;;06250;MOUGINS;FR;05/06/1958;HENIN LIETARD;FR;F;;;0;NCAD6;2;2;$E;Animateur;551A;0;0;1;BQUE1;CZECH ANITA;BNPPARB DOUVAINE (02369);BNPAFRPPXXX;FR76;3000;4023;6900;0002;4082;890;01/09/2020;30/09/2020;01/09/2020;30/09/2020;2;2098;001;008;1;120;27/02/2017;
01959;00001;NIBERT;VANESSA;E;;273119402810401;C;AVENUE LUCIEN BOEUF;RESIDENCE MON PLAISIR;BAT B2   APP 503;83370;FREJUS;FR;14/11/1973;CRETEIL;FR;F;;;1;NCAD6;2;2;$E;Animateur;551A;0;0;1;BQUE1;NIBERT VANESSA;CREDIT MUTUEL LA LOUPE;CMCIFR2A;FR76;1027;8373;4000;0105;5920;218;01/09/2020;30/09/2020;01/09/2020;30/09/2020;2;2098;001;008;1;120;22/04/2017;
01978;00001;DARROUZES;STEPHANIE;E;FOUERT;274053352206313;M;39 RUE DU MAQUIS;;;82000;MONTAUBAN;FR;18/05/1974;TALENCE;FR;F;;;2;NCAD6;2;2;$E;Animateur;551A;0;0;1;BQUE1;DARROUZES STEPHANIE;CA MONTAUBAN;AGRIFRPP812;FR76;1120;6203;5300;3151;3612;184;01/09/2020;30/09/2020;01/09/2020;30/09/2020;2;2098;001;008;1;120;03/07/2017;
01994;00001;DESJARDINS;CATHERINE;E;;262058021210158;V;2 RUE DES ENCLOS;;;76220;MONT ROTY;FR;01/05/1962;CORBIE;FR;F;;;0;NCAD6;2;2;$E;Animateur;551A;0;0;1;BQUE1;DESJARDINS CATHERINE;LA BANQUE POSTALE - 59900 LILLE CEDEX 9,;PSSTFRPPLIL;FR91;2004;1010;0515;9728;9D02;670;01/09/2020;30/09/2020;01/09/2020;30/09/2020;2;2098;001;008;1;120;22/09/2017;
01998;00001;SERPAGGI;DOMINIQUE;E;ALBERTINI;259029935401430;M;11 RESIDENCE CASALE ;LIEU DIT MUSOLEU - FOLELLI;;20213;PENTA DI CASINCA;FR;10/02/1959;PHILIPPEVILLE;FR;F;;;0;NCAD6;2;2;$E;Animateur;551A;0;0;1;BQUE1;SERPAGGI DOMINIQUE;BPPC MRS-ST LOUIS;CCBPFRPPMAR;FR76;1460;7000;8408;4150;8787;594;01/09/2020;30/09/2020;01/09/2020;30/09/2020;2;2098;001;008;1;120;06/11/2017;
05034;00001;THOMAS;ISABELLE;E;DURAND;260027031108444;M;13 RUE MAREY;CHEZ MADAME GUIGNIER;;21200;BEAUNE;FR;23/02/1960;LUXEUIL LES BAINS;FR;F;;;1;NCAD6;2;2;$E;Animateur;551A;0;0;1;BQUE1;THOMAS ISABELLE;HERICOURT;AGRIFRPP825;FR76;1250;6700;4350;0595;0701;045;01/09/2020;30/09/2020;01/09/2020;30/09/2020;2;2098;001;008;1;120;27/04/2018;
05072;00001;BOULAHZOUT;SALIMA;E;;292089935013758;C;4 CHEMIN DE BOS;;;33160;SAINT MEDARD EN JALLES;FR;28/08/1992;MHAJAR;MA;E;3308005610;17/01/2021;0;NCAD6;2;2;$E;Animateur;551A;0;0;1;BQUE1;BOULAHZOUT SALIMA;CL ST MEDARD JALLES (01843);CRLYFRPP;FR98;3000;2018;4000;0019;1756;Y61;01/09/2020;30/09/2020;01/09/2020;30/09/2020;2;2098;001;008;1;120;02/10/2018;
05076;00001;VANITOU;CARINE;E;GERARD;269047932921876;M;200 RUE PAUL CHOULOT;RESIDENCE LE FAGONIA;;34080;MONTPELLIER;FR;14/04/1969;THOUARS;FR;F;;;1;NCAD6;2;2;$E;Animateur;551A;0;0;1;BQUE1;VANITOU CARINE;CREDIT AGRICOLE DU LANGUEDOC;AGRIFRPP835;FR76;1350;6100;0012;2859;4300;092;01/09/2020;30/09/2020;01/09/2020;30/09/2020;2;2098;001;008;1;120;19/10/2018;
05082;00001;LAVENU;JUSTINE;E;;288012623501856;C;1 RUE AUGUSTE PERRET;LES TERRASSES GRANDE PLACE;MONTEE C;26500;BOURG LES VALENCE;FR;09/01/1988;PIERRELATTE;FR;F;;;0;NCAD6;2;2;$E;Animateur;551A;0;0;1;BQUE1;LAVENU JUSTINE;BP AURA BRG.LES VALENCE;CCBPFRPPGRE;FR76;1680;7001;5932;3372;4219;493;01/09/2020;30/09/2020;01/09/2020;30/09/2020;2;2098;001;008;1;120;07/12/2018;
05096;00001;JONIAUX;GERALDINE;E;;268015917809136;C;12 RUE PRINCESSE;APP 122;;59800;LILLE;FR;11/01/1968;DOUAI;FR;F;;;0;NCAD6;2;2;$E;Animateur;551A;0;0;1;BQUE1;JONIAUX GERALDINE;MARCQ BAROEUL CROISE;NORDFRPP;FR76;3007;6029;3825;4022;0030;033;01/09/2020;30/09/2020;01/09/2020;30/09/2020;2;2098;001;008;1;120;16/05/2019;
05101;00001;SUEL;REGINE;E;PALACIO;267011305601024;M;9 RUE DE LA POSTE;;;56640;ARZON;FR;06/01/1967;MARTIGUES;FR;F;;;0;NCAD6;2;2;$E;Animateur;551A;0;0;1;BQUE1;SUEL REGINE;CCM SARZEAU;CMBRFR2BARK;FR76;1558;9569;3207;2216;7734;020;01/09/2020;30/09/2020;01/09/2020;30/09/2020;2;2098;001;008;1;120;20/04/2019;
05106;00001;LOCH;CAROLE;E;;285112923210789;P;LIEU DIT PENHORS;;;29720;TREOGAT;FR;22/11/1985;QUIMPER;FR;F;;;0;NCAD6;2;2;$E;Animateur;551A;0;0;1;BQUE1;LOCH CAROLE;CCM PLONEOUR LANVERN ,TEL 02 98 87 62 83;CMBRFR2BXXX;FR76;1558;9297;2600;0556;9564;031;01/09/2020;30/09/2020;01/09/2020;30/09/2020;2;2098;001;008;1;120;16/05/2019;
05127;00001;BONNEAU;SYLVIE ;E;RENOU;274098519404889;M;48 RUE DE VERDUN;;;17440;AYTRE;FR;21/09/1974;LES SABLES D OLONNE;FR;F;;;2;NCAD6;2;2;$E;Animateur;551A;0;0;1;BQUE1;BONNEAU SYLVIE ;BNPPARBN COGNAC (00302);BNPAFRPPXXX;FR76;3000;4002;8300;0003;9485;673;01/09/2020;30/09/2020;01/09/2020;30/09/2020;2;2098;001;008;1;120;21/09/2019;
05141;00001;BUFFOLO;ISABELLE;E;DESTOUCHES;268023722602152;M;254 AVENUE DE FRONTON;;;31200;TOULOUSE;FR;21/02/1968;SAINTE MARIE DE TOURAINE;FR;F;;;1;NCAD6;2;2;$E;Animateur;551A;0;0;1;BQUE1;BUFFOLO ISABELLE;CCM NARBONNE HOTEL DE VILLE;CMCIFR2A;FR76;1027;8089;6400;0206;8054;015;01/09/2020;30/09/2020;01/09/2020;30/09/2020;2;2098;001;008;1;120;08/10/2019;
05144;00001;BEYER;ANGELIQUE;E; BEYER;275026746202362;C;23 B RUE DE NORMANDIE;;;68180;HORBOURG WIHR;FR;05/02/1975;SELESTAT;FR;F;;;0;NCAD6;2;2;$E;Animateur;551A;0;0;1;BQUE1;BEYER ANGELIQUE;LA BANQUE POSTALE CENTRE FINANCIER DE STRASBOURG CENTRE FINANCIER;PSSTFRPPSTR;FR35;2004;1010;1500;7365;2S03;684;01/09/2020;30/09/2020;01/09/2020;30/09/2020;2;2098;001;008;1;120;31/10/2019;
05165;00001;GUESTIN;STEPHANIE;E;GUESTIN;277045432903359;M;9 ROUTE DU PONT DE DOGNON;;;87400;SAINT MARTIN TERRESUS;FR;16/04/1977;LUNEVILLE;FR;F;;;1;NCAD6;2;2;$E;Animateur;551A;0;0;1;BQUE1;GUESTIN STEPHANIE;LA BANQUE POSTALE NANCY CENTRE FINANCIER;PSSTFRPPNCY;FR24;2004;1010;1001;8596;3L03;104;01/09/2020;30/09/2020;01/09/2020;30/09/2020;2;2098;001;008;1;120;28/01/2020;
05166;00001;ROUZAUD;MARION;E;;281093002807078;C;LE GRAND CHEMIN;;;30330;LE PIN;FR;28/09/1981;BAGNOL SUR CEZ;FR;F;;;0;NCAD6;2;2;$E;Animateur;551A;0;0;1;BQUE1;ROUZAUD MARION;BPS BAGNOLS;CCBPFRPPPPG;FR76;1660;7002;1209;1709;4304;413;01/09/2020;30/09/2020;01/09/2020;30/09/2020;2;2098;001;008;1;120;28/01/2020;
05172;00001;MARIE;ISABELLE;E;;265011471500422;K;40 ROUTE DU PIEMONT;;;11300;CEPIE;FR;10/01/1965;TROUVILLE SUR MER;FR;F;;;1;NCAD6;2;2;$E;Animateur;551A;0;0;1;BQUE1;MARIE ISABELLE;LIMOUX (00492),16 RUE JEAN JAURES,11300 LIMOUX;SOGEFRPP;FR76;3000;3011;3200;0501;2737;329;01/09/2020;30/09/2020;01/09/2020;30/09/2020;2;2098;001;008;1;120;08/02/2020;
05176;00001;MARTELLETTI;MARIA VIRGINIA;E;;265017502200159;K;39 A GRANDE RUE;INTERPHONE 3 EME ETAGE;;39100;DOLE;FR;01/01/1965;CHOISY LE ROY;FR;F;;;0;NCAD6;2;2;$E;Animateur;551A;0;0;1;BQUE1;MARTELLETTI MARIA VIRGINIA;LA BANQUE POSTALE CENTRE FINANCIER 69900 LYON CEDEX 20;PSSTFRPPDIJ;FR23;2004;1010;0412;4453;1P02;548;01/09/2020;30/09/2020;01/09/2020;30/09/2020;2;2098;001;008;1;120;26/02/2020;
05182;00001;TOPARCEAN;NICOLETA;E;;272039911410222;S;270  ROUTE DE KERVERN TALAOURON;;;29470;PLOUGASTEL DAOULAS;FR;21/03/1972;BRAILA;RO;E;2203010705;04/02/2028;0;NCAD6;2;2;$E;Animateur;551A;0;0;1;BQUE1;TOPARCEAN NICOLETA;CREDIT AGRICOLE DES COTES D ARMOR,LA COIRX TUAL 22440 PLOUFRAGAN;AGRIFRPP822;FR76;1220;6041;0000;2903;2405;226;01/09/2020;30/09/2020;01/09/2020;30/09/2020;2;2098;001;008;1;120;15/09/2020;
05186;00001;BEJAOUI;CAROLINE;E;GREUET;280079304701216;M;24 CHEMIN DU RU D AVRIL; ;;95130;FRANCONVILLE LA GARENNE;FR;01/07/1980;MONTFERMEIL;FR;F;;;2;NCAD6;2;2;$E;Animateur;551A;0;0;1;BQUE1;BEJAOUI CAROLINE;CE CEIDF,SANNOIS 61 BOULEVARD CHARLES DE GAULLE 95110 95110 SANNOIS TEL 01.71.67.03.21;CEPAFRPP751;FR76;1751;5006;0004;0782;6223;990;01/09/2020;30/09/2020;01/09/2020;30/09/2020;2;2098;001;008;1;120;21/09/2020;
